{ "compressionlevel":-1,
 "height":12,
 "infinite":false,
 "layers":[
        {
         "id":19,
         "layers":[
                {
                 "data":[0, 0, 0, 0, 0, 0, 0, 0, 0, 0, 0, 0, 0, 0, 0, 0, 0, 0, 0, 0, 0, 0, 0, 0, 0, 0, 0, 0, 0, 0, 0, 0, 0, 0, 0, 0, 0, 0, 0, 0, 0, 0, 0, 0, 0, 0, 0, 0, 0, 0, 0, 0, 0, 0, 0, 0, 0, 0, 0, 0, 0, 0, 0, 0, 0, 0, 0, 0, 0, 0, 0, 0, 0, 0, 0, 0, 0, 0, 0, 0, 0, 0, 0, 0, 0, 0, 0, 0, 0, 0, 0, 0, 0, 0, 0, 0, 0, 0, 0, 0, 0, 0, 0, 0, 0, 0, 0, 0, 0, 0, 0, 0, 0, 0, 0, 0, 0, 0, 0, 0, 0, 0, 0, 0, 0, 0, 0, 0, 0, 2082, 0, 0, 0, 0, 0, 0, 0, 0, 0, 0, 0, 0, 2082, 0, 0, 0, 0, 0, 0, 0, 0, 0, 0, 0, 0, 0],
                 "height":12,
                 "id":3,
                 "name":"start",
                 "opacity":1,
                 "properties":[
                        {
                         "name":"startLayer",
                         "type":"bool",
                         "value":true
                        }],
                 "type":"tilelayer",
                 "visible":true,
                 "width":13,
                 "x":0,
                 "y":0
                }],
         "name":"Start-Ebenen",
         "opacity":1,
         "type":"group",
         "visible":true,
         "x":0,
         "y":0
        }, 
        {
         "id":20,
         "layers":[
                {
                 "data":[0, 0, 0, 0, 0, 0, 0, 0, 0, 0, 0, 0, 0, 0, 0, 0, 0, 0, 0, 0, 0, 0, 0, 0, 0, 0, 0, 0, 0, 0, 0, 0, 0, 0, 0, 0, 0, 0, 0, 0, 0, 0, 0, 0, 0, 0, 0, 0, 0, 0, 2081, 0, 0, 0, 0, 0, 0, 0, 0, 0, 0, 0, 0, 2081, 0, 0, 0, 0, 0, 0, 0, 0, 0, 0, 0, 0, 0, 0, 0, 0, 0, 0, 0, 0, 0, 0, 0, 0, 0, 0, 0, 0, 0, 0, 0, 0, 0, 0, 0, 0, 0, 0, 0, 0, 0, 0, 0, 0, 0, 0, 0, 0, 0, 0, 0, 0, 0, 0, 0, 0, 0, 0, 0, 0, 0, 0, 0, 0, 0, 0, 0, 0, 0, 0, 0, 0, 0, 0, 0, 0, 0, 0, 0, 0, 0, 0, 0, 0, 0, 0, 0, 0, 0, 0, 0, 0],
                 "height":12,
                 "id":11,
                 "name":"exit",
                 "opacity":1,
                 "properties":[
                        {
                         "name":"exitUrl",
                         "type":"string",
                         "value":"main.json#start_cinema"
                        }],
                 "type":"tilelayer",
                 "visible":true,
                 "width":13,
                 "x":0,
                 "y":0
                }],
         "name":"Exit-Ebenen",
         "opacity":1,
         "type":"group",
         "visible":true,
         "x":0,
         "y":0
        }, 
        {
         "id":18,
         "layers":[
                {
                 "data":[0, 0, 0, 0, 0, 0, 0, 0, 0, 0, 0, 0, 0, 0, 0, 0, 0, 0, 0, 0, 0, 0, 0, 0, 0, 0, 0, 0, 0, 0, 0, 0, 0, 0, 0, 0, 0, 0, 0, 0, 2085, 2085, 2085, 2085, 2085, 2085, 2085, 2085, 2085, 2085, 2085, 0, 0, 2085, 2085, 2085, 2085, 2085, 2085, 2085, 2085, 2085, 2085, 2085, 0, 0, 2085, 2085, 2085, 2085, 2085, 2085, 2085, 2085, 2085, 2085, 2085, 0, 0, 2085, 2085, 2085, 2085, 2085, 2085, 2085, 2085, 2085, 2085, 2085, 0, 0, 2085, 2085, 2085, 2085, 2085, 2085, 2085, 2085, 2085, 2085, 2085, 0, 0, 2085, 2085, 2085, 2085, 2085, 2085, 2085, 2085, 2085, 2085, 2085, 0, 0, 2085, 2085, 2085, 2085, 2085, 2085, 2085, 2085, 2085, 2085, 2085, 2085, 0, 2085, 2085, 2085, 2085, 2085, 2085, 2085, 2085, 2085, 2085, 2085, 2085, 0, 0, 0, 0, 0, 0, 0, 0, 0, 0, 0, 0, 0],
                 "height":12,
                 "id":22,
                 "name":"Ruhebereich",
                 "opacity":1,
                 "properties":[
                        {
                         "name":"silent",
                         "type":"bool",
                         "value":true
                        }],
                 "type":"tilelayer",
                 "visible":true,
                 "width":13,
                 "x":0,
                 "y":0
                }, 
                {
                 "data":[0, 0, 0, 0, 0, 0, 0, 0, 0, 0, 0, 0, 0, 0, 0, 0, 0, 0, 0, 0, 0, 0, 0, 0, 0, 0, 0, 0, 0, 0, 0, 0, 0, 0, 0, 0, 0, 0, 0, 0, 2086, 2086, 2086, 2086, 2086, 2086, 2086, 2086, 2086, 2086, 2086, 0, 0, 2086, 2086, 2086, 2086, 2086, 2086, 2086, 2086, 2086, 2086, 2086, 0, 0, 2086, 2086, 2086, 2086, 2086, 2086, 2086, 2086, 2086, 2086, 2086, 0, 0, 2086, 2086, 2086, 2086, 2086, 2086, 2086, 2086, 2086, 2086, 2086, 0, 0, 2086, 2086, 2086, 2086, 2086, 2086, 2086, 2086, 2086, 2086, 2086, 0, 0, 2086, 2086, 2086, 2086, 2086, 2086, 2086, 2086, 2086, 2086, 2086, 0, 0, 2086, 2086, 2086, 2086, 2086, 2086, 2086, 2086, 2086, 2086, 2086, 2086, 0, 2086, 2086, 2086, 2086, 2086, 2086, 2086, 2086, 2086, 2086, 2086, 2086, 0, 0, 0, 0, 0, 0, 0, 0, 0, 0, 0, 0, 0],
                 "height":12,
                 "id":9,
                 "name":"Projektorger\u00e4usch",
                 "opacity":1,
                 "properties":[
                        {
                         "name":"playAudio",
                         "type":"string",
                         "value":"sounds\/Kinoprojektor.mp3"
                        }],
                 "type":"tilelayer",
                 "visible":true,
                 "width":13,
                 "x":0,
                 "y":0
                }, 
                {
                 "data":[0, 0, 0, 0, 0, 0, 0, 0, 0, 0, 0, 0, 0, 0, 0, 0, 0, 0, 0, 0, 0, 0, 0, 0, 0, 0, 0, 0, 0, 0, 0, 0, 0, 0, 0, 0, 0, 0, 0, 0, 2089, 2089, 2089, 2089, 2089, 2089, 2089, 2089, 2089, 0, 0, 0, 0, 2089, 2089, 2089, 2089, 2089, 2089, 2089, 2089, 2089, 0, 0, 0, 0, 2089, 2089, 2089, 2089, 2089, 2089, 2089, 2089, 2089, 0, 0, 0, 0, 2089, 2089, 2089, 2089, 2089, 2089, 2089, 2089, 2089, 0, 0, 0, 0, 2089, 2089, 2089, 2089, 2089, 2089, 2089, 2089, 2089, 0, 0, 0, 0, 2089, 2089, 2089, 2089, 2089, 2089, 2089, 2089, 2089, 0, 0, 0, 0, 2089, 2089, 2089, 2089, 2089, 2089, 2089, 2089, 2089, 0, 0, 0, 0, 2089, 2089, 2089, 2089, 2089, 2089, 2089, 2089, 2089, 0, 0, 0, 0, 0, 0, 0, 0, 0, 0, 0, 0, 0, 0, 0, 0],
                 "height":12,
                 "id":4,
                 "name":"Video",
                 "opacity":1,
                 "properties":[
                        {
                         "name":"openWebsite",
                         "type":"string",
                         "value":"https:\/\/divoc.computertruhe.de\/webpages\/video.html"
                        }, 
                        {
                         "name":"openWebsiteTrigger",
                         "type":"string",
                         "value":"onaction"
                        }, 
                        {
                         "name":"openWebsiteTriggerMessage",
                         "type":"string",
                         "value":"Dr\u00fccke SPACE, um eine kurze Pr\u00e4sentation \u00fcber die Computertruhe zu sehen. \/ Press SPACE to see a short presentation about the Computertruhe."
                        }],
                 "type":"tilelayer",
                 "visible":true,
                 "width":13,
                 "x":0,
                 "y":0
                }],
         "name":"Spezial-Ebenen",
         "opacity":1,
         "type":"group",
         "visible":true,
         "x":0,
         "y":0
        }, 
        {
         "data":[2084, 2084, 2084, 2084, 2084, 2084, 2084, 2084, 2084, 2084, 2084, 2084, 2084, 2084, 2084, 2084, 2084, 2084, 2084, 2084, 2084, 2084, 2084, 2084, 2084, 2084, 2084, 2084, 2084, 2084, 2084, 2084, 2084, 2084, 2084, 2084, 2084, 2084, 2084, 2084, 0, 0, 0, 0, 0, 0, 0, 0, 0, 0, 0, 2084, 2084, 0, 0, 0, 0, 0, 0, 0, 2084, 0, 0, 0, 2084, 2084, 0, 0, 0, 0, 0, 0, 0, 0, 0, 0, 2084, 2084, 2084, 0, 2084, 0, 0, 0, 0, 0, 0, 0, 0, 0, 2084, 2084, 0, 0, 0, 0, 0, 0, 0, 0, 0, 0, 0, 2084, 2084, 0, 0, 0, 0, 0, 0, 0, 0, 0, 0, 0, 2084, 2084, 0, 0, 0, 0, 0, 0, 0, 0, 0, 0, 0, 0, 2084, 2084, 0, 0, 2084, 2084, 0, 0, 0, 0, 0, 0, 0, 2084, 2084, 2084, 2084, 2084, 2084, 2084, 2084, 2084, 2084, 2084, 2084, 2084],
         "height":12,
         "id":23,
         "name":"Blocker",
         "opacity":1,
         "type":"tilelayer",
         "visible":true,
         "width":13,
         "x":0,
         "y":0
        }, 
        {
         "id":16,
         "layers":[
                {
                 "data":[0, 0, 0, 0, 0, 0, 0, 0, 0, 0, 0, 0, 0, 0, 0, 0, 0, 0, 0, 0, 0, 0, 0, 0, 0, 0, 0, 0, 0, 0, 0, 0, 0, 0, 0, 0, 0, 0, 0, 0, 1053, 1053, 1053, 1053, 1053, 1053, 1053, 1053, 1053, 1053, 1053, 0, 0, 1053, 1053, 1053, 1053, 1053, 1053, 1053, 1053, 1053, 1053, 1053, 0, 0, 1053, 1053, 1053, 1053, 1053, 1053, 1053, 1053, 1053, 1053, 1053, 0, 0, 1053, 1053, 1053, 1053, 1053, 1053, 1053, 1053, 1053, 1053, 1053, 0, 0, 1053, 1053, 1053, 1053, 1053, 1053, 1053, 1053, 1053, 1053, 1053, 0, 0, 1053, 1053, 1053, 1053, 1053, 1053, 1053, 1053, 1053, 1053, 1053, 0, 0, 1053, 1053, 1053, 1053, 1053, 1053, 1053, 1053, 1053, 1053, 1053, 0, 0, 1053, 1053, 1053, 1053, 1053, 1053, 1053, 1053, 1053, 1053, 1053, 0, 0, 0, 0, 0, 0, 0, 0, 0, 0, 0, 0, 0, 0],
                 "height":12,
                 "id":1,
                 "name":"Teppichboden",
                 "opacity":1,
                 "type":"tilelayer",
                 "visible":true,
                 "width":13,
                 "x":0,
                 "y":0
                }, 
                {
                 "data":[0, 0, 0, 0, 0, 0, 0, 0, 0, 0, 0, 0, 0, 0, 0, 0, 0, 0, 0, 0, 0, 0, 0, 0, 0, 0, 0, 0, 0, 0, 0, 0, 0, 0, 0, 0, 0, 0, 0, 0, 0, 0, 0, 0, 0, 0, 0, 0, 0, 0, 2684355641, 2684355673, 0, 0, 0, 0, 0, 0, 0, 0, 0, 0, 0, 2684355642, 2684355674, 0, 0, 0, 0, 0, 0, 0, 0, 0, 0, 0, 0, 0, 0, 0, 0, 0, 0, 0, 0, 0, 0, 0, 0, 0, 0, 0, 0, 0, 0, 0, 0, 0, 0, 0, 0, 0, 0, 0, 0, 0, 0, 0, 0, 0, 0, 0, 0, 0, 0, 0, 0, 0, 0, 0, 0, 0, 0, 0, 0, 0, 0, 0, 2684355641, 2684355673, 0, 0, 0, 0, 0, 0, 0, 0, 0, 0, 0, 2684355642, 2684355674, 0, 0, 0, 0, 0, 0, 0, 0, 0, 0, 0, 0, 0],
                 "height":12,
                 "id":17,
                 "name":"Treppen",
                 "opacity":1,
                 "type":"tilelayer",
                 "visible":true,
                 "width":13,
                 "x":0,
                 "y":0
                }],
         "name":"Boden",
         "opacity":1,
         "type":"group",
         "visible":true,
         "x":0,
         "y":0
        }, 
        {
         "id":13,
         "layers":[
                {
                 "data":[404, 389, 386, 389, 386, 386, 386, 386, 2147484037, 386, 2147484037, 401, 403, 404, 389, 386, 389, 386, 386, 386, 386, 2147484037, 386, 2147484037, 401, 403, 404, 397, 394, 397, 394, 394, 394, 394, 2147484045, 394, 2147484045, 401, 403, 404, 0, 0, 0, 0, 0, 0, 0, 0, 0, 0, 0, 0, 404, 0, 0, 0, 0, 0, 0, 0, 0, 0, 0, 0, 0, 404, 0, 0, 0, 0, 0, 0, 0, 0, 0, 0, 0, 403, 404, 0, 0, 0, 0, 0, 0, 0, 0, 0, 0, 0, 403, 404, 0, 0, 0, 0, 0, 0, 0, 0, 0, 0, 0, 403, 404, 0, 0, 0, 0, 0, 0, 0, 0, 0, 0, 0, 403, 404, 0, 0, 0, 0, 0, 0, 0, 0, 0, 0, 0, 0, 404, 0, 0, 0, 0, 0, 0, 0, 0, 0, 0, 0, 0, 409, 410, 410, 410, 410, 410, 410, 410, 410, 410, 410, 410, 411],
                 "height":12,
                 "id":12,
                 "name":"Mauer",
                 "opacity":1,
                 "type":"tilelayer",
                 "visible":true,
                 "width":13,
                 "x":0,
                 "y":0
                }, 
                {
                 "data":[0, 0, 0, 0, 1841, 1842, 1843, 1844, 0, 0, 0, 0, 0, 0, 0, 0, 0, 1851, 1852, 1853, 1854, 0, 0, 0, 0, 0, 0, 0, 0, 0, 1861, 1862, 1863, 1864, 0, 0, 0, 0, 0, 0, 0, 0, 0, 0, 0, 0, 0, 0, 0, 0, 0, 0, 0, 0, 0, 0, 0, 0, 0, 0, 0, 0, 0, 0, 0, 0, 0, 0, 0, 0, 0, 0, 0, 0, 0, 0, 0, 0, 0, 0, 0, 0, 0, 0, 0, 0, 0, 0, 0, 0, 0, 0, 0, 0, 0, 0, 0, 0, 0, 0, 0, 0, 0, 0, 0, 0, 0, 0, 0, 0, 0, 0, 0, 0, 0, 0, 0, 0, 0, 0, 0, 0, 0, 0, 0, 0, 0, 0, 0, 0, 0, 0, 0, 0, 0, 0, 0, 0, 0, 0, 0, 0, 0, 0, 0, 0, 0, 0, 0, 0, 0, 0, 0, 0, 0, 0],
                 "height":12,
                 "id":7,
                 "name":"Leinwand",
                 "opacity":0.66,
                 "type":"tilelayer",
                 "visible":true,
                 "width":13,
                 "x":0,
                 "y":0
                }, 
                {
                 "data":[1385, 697, 697, 0, 0, 0, 0, 0, 0, 697, 697, 1385, 0, 0, 707, 707, 0, 0, 0, 0, 0, 0, 707, 707, 0, 0, 0, 705, 705, 0, 0, 0, 0, 0, 0, 705, 705, 1965, 0, 0, 0, 0, 0, 0, 0, 0, 0, 0, 0, 0, 0, 0, 0, 0, 0, 0, 0, 0, 0, 0, 0, 0, 0, 0, 0, 0, 0, 0, 0, 0, 0, 0, 0, 0, 0, 0, 0, 0, 0, 0, 0, 0, 0, 0, 0, 0, 0, 0, 0, 0, 0, 0, 0, 0, 0, 0, 0, 0, 0, 0, 0, 0, 0, 0, 0, 0, 0, 0, 0, 0, 0, 0, 0, 0, 0, 0, 0, 1664, 0, 0, 0, 0, 0, 0, 0, 0, 0, 0, 0, 0, 1977, 0, 0, 0, 0, 0, 0, 0, 0, 0, 0, 0, 0, 0, 0, 0, 0, 0, 0, 0, 0, 0, 0, 0, 0, 0],
                 "height":12,
                 "id":14,
                 "name":"Deko",
                 "opacity":1,
                 "type":"tilelayer",
                 "visible":true,
                 "width":13,
                 "x":0,
                 "y":0
                }],
         "name":"W\u00e4nde",
         "opacity":1,
         "type":"group",
         "visible":true,
         "x":0,
         "y":0
        }, 
        {
         "id":15,
         "layers":[
                {
                 "data":[0, 0, 0, 0, 0, 0, 0, 0, 0, 0, 0, 0, 0, 0, 0, 0, 0, 0, 0, 0, 0, 0, 0, 0, 0, 0, 0, 0, 0, 0, 0, 0, 0, 0, 0, 0, 0, 0, 0, 0, 0, 0, 0, 0, 0, 0, 0, 0, 0, 0, 0, 0, 0, 1317, 1318, 1319, 1317, 1318, 1319, 1317, 1318, 1319, 0, 0, 0, 0, 0, 0, 0, 0, 0, 0, 0, 0, 0, 0, 0, 0, 0, 1317, 1318, 1319, 1317, 1318, 1319, 1317, 1318, 1319, 0, 0, 0, 0, 0, 0, 0, 0, 0, 0, 0, 0, 0, 0, 0, 0, 0, 1317, 1318, 1319, 1317, 1318, 1319, 1317, 1318, 1319, 0, 0, 0, 0, 0, 0, 0, 0, 0, 0, 0, 0, 0, 0, 0, 0, 0, 0, 1317, 1319, 1317, 1318, 1319, 1317, 1318, 1319, 0, 0, 0, 0, 0, 0, 0, 0, 0, 0, 0, 0, 0, 0, 0, 0],
                 "height":12,
                 "id":2,
                 "name":"M\u00f6bel",
                 "opacity":1,
                 "type":"tilelayer",
                 "visible":true,
                 "width":13,
                 "x":0,
                 "y":0
                }, 
                {
                 "data":[0, 0, 0, 0, 0, 0, 0, 0, 0, 0, 0, 0, 0, 0, 0, 0, 0, 0, 0, 0, 0, 0, 0, 0, 0, 0, 0, 0, 0, 0, 0, 0, 0, 0, 0, 0, 0, 0, 0, 0, 0, 0, 0, 0, 0, 0, 0, 0, 0, 0, 0, 0, 0, 0, 0, 0, 0, 0, 0, 0, 1955, 0, 0, 0, 0, 0, 0, 0, 0, 0, 0, 0, 0, 0, 0, 0, 2052, 0, 0, 0, 2147485516, 0, 0, 0, 0, 0, 0, 0, 0, 0, 0, 0, 0, 0, 0, 0, 0, 0, 0, 0, 0, 0, 0, 0, 0, 0, 0, 0, 0, 0, 0, 0, 0, 0, 0, 0, 0, 0, 0, 0, 0, 0, 0, 0, 0, 0, 0, 0, 0, 0, 0, 1961, 0, 0, 1940, 2147485526, 0, 0, 0, 0, 0, 0, 0, 0, 0, 0, 0, 0, 0, 0, 0, 0, 0, 0, 0, 0],
                 "height":12,
                 "id":10,
                 "name":"Gegenst\u00e4nde",
                 "opacity":1,
                 "type":"tilelayer",
                 "visible":true,
                 "width":13,
                 "x":0,
                 "y":0
                }],
         "name":"Einrichtung",
         "opacity":1,
         "type":"group",
         "visible":true,
         "x":0,
         "y":0
        }, 
        {
         "data":[0, 0, 0, 0, 0, 0, 0, 0, 0, 0, 0, 0, 0, 0, 0, 0, 0, 0, 0, 0, 0, 0, 0, 0, 0, 0, 0, 0, 0, 0, 0, 0, 0, 0, 0, 0, 0, 0, 0, 0, 0, 0, 0, 0, 0, 0, 0, 0, 0, 0, 0, 0, 1932, 0, 0, 0, 0, 0, 0, 0, 0, 0, 0, 0, 0, 1931, 0, 0, 0, 0, 0, 0, 0, 0, 0, 0, 0, 0, 0, 0, 0, 0, 0, 0, 0, 0, 0, 0, 0, 0, 0, 0, 0, 0, 0, 0, 0, 0, 0, 0, 0, 0, 0, 0, 0, 0, 0, 0, 0, 0, 0, 0, 0, 0, 0, 0, 1933, 0, 0, 0, 0, 0, 0, 0, 0, 0, 0, 0, 0, 0, 0, 0, 0, 0, 0, 0, 0, 0, 0, 0, 0, 0, 0, 0, 0, 0, 0, 0, 0, 0, 0, 0, 0, 0, 0, 1933],
         "height":12,
         "id":24,
         "name":"Hinweisschilder",
         "opacity":1,
         "type":"tilelayer",
         "visible":true,
         "width":13,
         "x":0,
         "y":0
        }, 
        {
         "draworder":"topdown",
         "id":6,
         "name":"floorLayer",
         "objects":[],
         "opacity":1,
         "type":"objectgroup",
         "visible":true,
         "x":0,
         "y":0
        }, 
        {
         "data":[0, 0, 0, 0, 0, 0, 0, 0, 0, 0, 0, 0, 0, 0, 0, 0, 0, 0, 0, 0, 0, 0, 0, 0, 0, 0, 0, 0, 0, 0, 0, 0, 0, 0, 0, 0, 0, 0, 0, 0, 0, 0, 0, 0, 0, 0, 0, 1945, 0, 0, 0, 0, 0, 0, 0, 0, 0, 0, 0, 0, 0, 0, 0, 0, 0, 0, 0, 0, 0, 0, 0, 0, 0, 0, 0, 0, 0, 0, 0, 0, 0, 0, 0, 0, 0, 0, 0, 0, 0, 0, 0, 0, 0, 0, 0, 0, 0, 0, 0, 0, 0, 0, 0, 0, 0, 0, 0, 0, 0, 0, 0, 0, 0, 0, 0, 0, 0, 0, 0, 0, 0, 0, 0, 0, 0, 0, 0, 0, 0, 0, 0, 0, 0, 0, 0, 0, 0, 0, 0, 0, 0, 0, 0, 0, 0, 0, 0, 0, 0, 0, 0, 0, 0, 0, 0, 0],
         "height":12,
         "id":25,
         "name":"Gegenst\u00e4nde (Vordergrund)",
         "opacity":1,
         "type":"tilelayer",
         "visible":true,
         "width":13,
         "x":0,
         "y":0
        }],
 "nextlayerid":26,
 "nextobjectid":12,
 "orientation":"orthogonal",
 "properties":[
        {
         "name":"mapCopyright",
         "type":"string",
         "value":"CC BY 4.0 Computertruhe e. V. - Excluded are the Computertruhe logo and all other works that are explicitly licensed.\n\nKinoprojektor.mp3\n-----\nCC0 1.0 Dr. Macak\nhttps:\/\/freesound.org\/people\/Dr.%20Macak\/sounds\/253758\/"
        }, 
        {
         "name":"mapDescription",
         "type":"string",
         "value":"Here you can watch a short presentation about the association \"Computertruhe e. V.\"."
        }, 
        {
         "name":"mapLink",
         "type":"string",
         "value":"world:\/\/computertruhe\/cinema.json"
        }, 
        {
         "name":"mapName",
         "type":"string",
         "value":"Cinema"
        }],
 "renderorder":"right-down",
 "tiledversion":"1.7.2",
 "tileheight":32,
 "tilesets":[
        {
         "columns":8,
         "firstgid":1,
         "image":"tilesets\/BaseChip_pipo_1.png",
         "imageheight":3840,
         "imagewidth":256,
         "margin":0,
         "name":"BaseChip_pipo_1",
         "properties":[
                {
                 "name":"tilesetCopyright",
                 "type":"string",
                 "value":"Pipoya RPG Tileset 32x32\n-----\nFor commercial or personal use.\nUse and edit freely.\nNot redistribute or resell this assets.\nIt can be used for game development and other productions.\nhttps:\/\/pipoya.itch.io\/pipoya-rpg-tileset-32x32\n"
                }],
         "spacing":0,
         "tilecount":960,
         "tileheight":32,
         "tilewidth":32
        }, 
        {
         "columns":8,
         "firstgid":961,
         "image":"tilesets\/housetileset.png",
         "imageheight":448,
         "imagewidth":256,
         "margin":0,
         "name":"housetileset",
         "properties":[
                {
                 "name":"tilesetCopyright",
                 "type":"string",
                 "value":"Interior Home Tileset\n-----\nThis asset pack can be used in both free and commercial projects. You can modify it to suit your own needs.\nhttps:\/\/btl-games.itch.io\/topdown"
                }],
         "spacing":0,
         "tilecount":112,
         "tileheight":32,
         "tilewidth":32
        }, 
        {
         "columns":16,
         "firstgid":1073,
         "image":"tilesets\/tilesets_deviant_milkian_1.png",
         "imageheight":512,
         "imagewidth":512,
         "margin":0,
         "name":"tilesets_deviant_milkian_1",
         "properties":[
                {
                 "name":"tilesetCopyright",
                 "type":"string",
                 "value":"Milkian RPG Tilesets\n-----\nFree to use.\nhttps:\/\/www.deviantart.com\/milkian\nhttps:\/\/www.deviantart.com\/milkian\/art\/Tilesets-FSM-RM2K3-para-VX-Ace-Set-Escritorio-651542743\nhttps:\/\/www.deviantart.com\/milkian\/art\/Tilesets-FSM-RM2K3-para-VX-Ace-Set-Hospital-651534818\nhttps:\/\/www.deviantart.com\/milkian\/art\/Tilesets-Modern-Mack-723975011\nhttps:\/\/www.deviantart.com\/milkian\/art\/Tilesets-Interior-para-RMVX-Ace-Editados-636320346"
                }],
         "spacing":0,
         "tilecount":256,
         "tileheight":32,
         "tilewidth":32
        }, 
        {
         "columns":16,
         "firstgid":1329,
         "image":"tilesets\/tilesets_deviant_milkian_3.png",
         "imageheight":512,
         "imagewidth":512,
         "margin":0,
         "name":"tilesets_deviant_milkian_3",
         "properties":[
                {
                 "name":"tilesetCopyright",
                 "type":"string",
                 "value":"Milkian RPG Tilesets\n-----\nFree to use.\nhttps:\/\/www.deviantart.com\/milkian\nhttps:\/\/www.deviantart.com\/milkian\/art\/Tilesets-FSM-RM2K3-para-VX-Ace-Set-Escritorio-651542743\nhttps:\/\/www.deviantart.com\/milkian\/art\/Tilesets-FSM-RM2K3-para-VX-Ace-Set-Hospital-651534818\nhttps:\/\/www.deviantart.com\/milkian\/art\/Tilesets-Modern-Mack-723975011\nhttps:\/\/www.deviantart.com\/milkian\/art\/Tilesets-Interior-para-RMVX-Ace-Editados-636320346"
                }],
         "spacing":0,
         "tilecount":256,
         "tileheight":32,
         "tilewidth":32
        }, 
        {
         "columns":16,
         "firstgid":1585,
         "image":"tilesets\/tilesets_deviant_milkian_2.png",
         "imageheight":512,
         "imagewidth":512,
         "margin":0,
         "name":"tilesets_deviant_milkian_2",
         "properties":[
                {
                 "name":"tilesetCopyright",
                 "type":"string",
                 "value":"Milkian RPG Tilesets\n-----\nFree to use.\nhttps:\/\/www.deviantart.com\/milkian\nhttps:\/\/www.deviantart.com\/milkian\/art\/Tilesets-FSM-RM2K3-para-VX-Ace-Set-Escritorio-651542743\nhttps:\/\/www.deviantart.com\/milkian\/art\/Tilesets-FSM-RM2K3-para-VX-Ace-Set-Hospital-651534818\nhttps:\/\/www.deviantart.com\/milkian\/art\/Tilesets-Modern-Mack-723975011\nhttps:\/\/www.deviantart.com\/milkian\/art\/Tilesets-Interior-para-RMVX-Ace-Editados-636320346"
                }],
         "spacing":0,
         "tilecount":256,
         "tileheight":32,
         "tilewidth":32
        }, 
        {
         "columns":10,
         "firstgid":1841,
         "image":"tilesets\/Computertruhe.png",
         "imageheight":384,
         "imagewidth":320,
         "margin":0,
         "name":"Computertruhe",
         "properties":[
                {
                 "name":"tilesetCopyright",
                 "type":"string",
                 "value":"Computertruhe\n-----\nglobe.png\nGNU LGPL 2.1\nhttps:\/\/commons.wikimedia.org\/wiki\/File:High-contrast-applications-internet.svg\n\ninfo.png\nCC0 1.0 Computertruhe\n\nno_microphone.png\nCC0 1.0 Computertruhe\n\nno_speaker.png\nCC0 1.0 Tehdog\nhttps:\/\/commons.wikimedia.org\/wiki\/File:Mute_Icon.svg\n\nno_trespassing.png\nCC0 1.0 Computertruhe\n\ntalk.png\nCC BY-SA 3.0 Dave Gandy\t\nhttps:\/\/commons.wikimedia.org\/wiki\/File:Comments_font_awesome.svg\n\nChCh*.png\nChaostreff Chemnitz\n\nComputerwerk*.png\nComputerwerk Darmstadt e. V.\n\nMate-Kiste*.png\nCCC\n\nSchenklradio.png\nSchenklradio\n\nOthers\nCC BY-ND 4.0 Computertruhe e. V."
                }],
         "spacing":0,
         "tilecount":120,
         "tileheight":32,
         "tiles":[
                {
                 "animation":[
                        {
                         "duration":100,
                         "tileid":30
                        }, 
                        {
                         "duration":100,
                         "tileid":60
                        }, 
                        {
                         "duration":100,
                         "tileid":30
                        }, 
                        {
                         "duration":100,
                         "tileid":60
                        }, 
                        {
                         "duration":100,
                         "tileid":30
                        }, 
                        {
                         "duration":100,
                         "tileid":60
                        }, 
                        {
                         "duration":100,
                         "tileid":30
                        }, 
                        {
                         "duration":100,
                         "tileid":60
                        }, 
                        {
                         "duration":8000,
                         "tileid":30
                        }],
                 "id":0
                }, 
                {
                 "animation":[
                        {
                         "duration":100,
                         "tileid":31
                        }, 
                        {
                         "duration":100,
                         "tileid":61
                        }, 
                        {
                         "duration":100,
                         "tileid":31
                        }, 
                        {
                         "duration":100,
                         "tileid":61
                        }, 
                        {
                         "duration":100,
                         "tileid":31
                        }, 
                        {
                         "duration":100,
                         "tileid":61
                        }, 
                        {
                         "duration":100,
                         "tileid":31
                        }, 
                        {
                         "duration":100,
                         "tileid":61
                        }, 
                        {
                         "duration":8000,
                         "tileid":31
                        }],
                 "id":1
                }, 
                {
                 "animation":[
                        {
                         "duration":100,
                         "tileid":32
                        }, 
                        {
                         "duration":100,
                         "tileid":62
                        }, 
                        {
                         "duration":100,
                         "tileid":32
                        }, 
                        {
                         "duration":100,
                         "tileid":62
                        }, 
                        {
                         "duration":100,
                         "tileid":32
                        }, 
                        {
                         "duration":100,
                         "tileid":62
                        }, 
                        {
                         "duration":100,
                         "tileid":32
                        }, 
                        {
                         "duration":100,
                         "tileid":62
                        }, 
                        {
                         "duration":8000,
                         "tileid":32
                        }],
                 "id":2
                }, 
                {
                 "animation":[
                        {
                         "duration":100,
                         "tileid":33
                        }, 
                        {
                         "duration":100,
                         "tileid":63
                        }, 
                        {
                         "duration":100,
                         "tileid":33
                        }, 
                        {
                         "duration":100,
                         "tileid":63
                        }, 
                        {
                         "duration":100,
                         "tileid":33
                        }, 
                        {
                         "duration":100,
                         "tileid":63
                        }, 
                        {
                         "duration":100,
                         "tileid":33
                        }, 
                        {
                         "duration":100,
                         "tileid":63
                        }, 
                        {
                         "duration":8000,
                         "tileid":33
                        }],
                 "id":3
                }, 
                {
                 "animation":[
                        {
                         "duration":100,
                         "tileid":40
                        }, 
                        {
                         "duration":100,
                         "tileid":70
                        }, 
                        {
                         "duration":100,
                         "tileid":40
                        }, 
                        {
                         "duration":100,
                         "tileid":70
                        }, 
                        {
                         "duration":100,
                         "tileid":40
                        }, 
                        {
                         "duration":100,
                         "tileid":70
                        }, 
                        {
                         "duration":100,
                         "tileid":40
                        }, 
                        {
                         "duration":100,
                         "tileid":70
                        }, 
                        {
                         "duration":8000,
                         "tileid":40
                        }],
                 "id":10
                }, 
                {
                 "animation":[
                        {
                         "duration":100,
                         "tileid":41
                        }, 
                        {
                         "duration":100,
                         "tileid":71
                        }, 
                        {
                         "duration":100,
                         "tileid":41
                        }, 
                        {
                         "duration":100,
                         "tileid":71
                        }, 
                        {
                         "duration":100,
                         "tileid":41
                        }, 
                        {
                         "duration":100,
                         "tileid":71
                        }, 
                        {
                         "duration":100,
                         "tileid":41
                        }, 
                        {
                         "duration":100,
                         "tileid":71
                        }, 
                        {
                         "duration":8000,
                         "tileid":41
                        }],
                 "id":11
                }, 
                {
                 "animation":[
                        {
                         "duration":100,
                         "tileid":42
                        }, 
                        {
                         "duration":100,
                         "tileid":72
                        }, 
                        {
                         "duration":100,
                         "tileid":42
                        }, 
                        {
                         "duration":100,
                         "tileid":72
                        }, 
                        {
                         "duration":100,
                         "tileid":42
                        }, 
                        {
                         "duration":100,
                         "tileid":72
                        }, 
                        {
                         "duration":100,
                         "tileid":42
                        }, 
                        {
                         "duration":100,
                         "tileid":72
                        }, 
                        {
                         "duration":8000,
                         "tileid":42
                        }],
                 "id":12
                }, 
                {
                 "animation":[
                        {
                         "duration":100,
                         "tileid":43
                        }, 
                        {
                         "duration":100,
                         "tileid":73
                        }, 
                        {
                         "duration":100,
                         "tileid":43
                        }, 
                        {
                         "duration":100,
                         "tileid":73
                        }, 
                        {
                         "duration":100,
                         "tileid":43
                        }, 
                        {
                         "duration":100,
                         "tileid":73
                        }, 
                        {
                         "duration":100,
                         "tileid":43
                        }, 
                        {
                         "duration":100,
                         "tileid":73
                        }, 
                        {
                         "duration":8000,
                         "tileid":43
                        }],
                 "id":13
                }, 
                {
                 "animation":[
                        {
                         "duration":100,
                         "tileid":50
                        }, 
                        {
                         "duration":100,
                         "tileid":80
                        }, 
                        {
                         "duration":100,
                         "tileid":50
                        }, 
                        {
                         "duration":100,
                         "tileid":80
                        }, 
                        {
                         "duration":100,
                         "tileid":50
                        }, 
                        {
                         "duration":100,
                         "tileid":80
                        }, 
                        {
                         "duration":100,
                         "tileid":50
                        }, 
                        {
                         "duration":100,
                         "tileid":80
                        }, 
                        {
                         "duration":8000,
                         "tileid":50
                        }],
                 "id":20
                }, 
                {
                 "animation":[
                        {
                         "duration":100,
                         "tileid":51
                        }, 
                        {
                         "duration":100,
                         "tileid":81
                        }, 
                        {
                         "duration":100,
                         "tileid":51
                        }, 
                        {
                         "duration":100,
                         "tileid":81
                        }, 
                        {
                         "duration":100,
                         "tileid":51
                        }, 
                        {
                         "duration":100,
                         "tileid":81
                        }, 
                        {
                         "duration":100,
                         "tileid":51
                        }, 
                        {
                         "duration":100,
                         "tileid":81
                        }, 
                        {
                         "duration":8000,
                         "tileid":51
                        }],
                 "id":21
                }, 
                {
                 "animation":[
                        {
                         "duration":100,
                         "tileid":52
                        }, 
                        {
                         "duration":100,
                         "tileid":82
                        }, 
                        {
                         "duration":100,
                         "tileid":52
                        }, 
                        {
                         "duration":100,
                         "tileid":82
                        }, 
                        {
                         "duration":100,
                         "tileid":52
                        }, 
                        {
                         "duration":100,
                         "tileid":82
                        }, 
                        {
                         "duration":100,
                         "tileid":52
                        }, 
                        {
                         "duration":100,
                         "tileid":82
                        }, 
                        {
                         "duration":8000,
                         "tileid":52
                        }],
                 "id":22
                }, 
                {
                 "animation":[
                        {
                         "duration":100,
                         "tileid":53
                        }, 
                        {
                         "duration":100,
                         "tileid":83
                        }, 
                        {
                         "duration":100,
                         "tileid":53
                        }, 
                        {
                         "duration":100,
                         "tileid":83
                        }, 
                        {
                         "duration":100,
                         "tileid":53
                        }, 
                        {
                         "duration":100,
                         "tileid":83
                        }, 
                        {
                         "duration":100,
                         "tileid":53
                        }, 
                        {
                         "duration":100,
                         "tileid":83
                        }, 
                        {
                         "duration":8000,
                         "tileid":53
                        }],
                 "id":23
                }],
         "tilewidth":32
        }, 
        {
         "columns":4,
         "firstgid":1961,
         "image":"tilesets\/CERT safety.png",
         "imageheight":160,
         "imagewidth":128,
         "margin":0,
         "name":"CERT safety",
         "properties":[
                {
                 "name":"tilesetCopyright",
                 "type":"string",
                 "value":"CERT Safety\n-----\nCC BY-SA CERT (cert.ccc.de)\nhttps:\/\/tiles.rc3.world\/"
                }],
         "spacing":0,
         "tilecount":20,
         "tileheight":32,
         "tilewidth":32
        }, 
        {
         "columns":10,
         "firstgid":1981,
         "image":"tilesets\/food and drinks.png",
         "imageheight":320,
         "imagewidth":320,
         "margin":0,
         "name":"food and drinks",
         "properties":[
                {
                 "name":"tilesetCopyright",
                 "type":"string",
                 "value":"Food an Drinks\n-----\nCC BY-SA CERT (cert.ccc.de)\nhttps:\/\/tiles.rc3.world\/"
                }],
         "spacing":0,
         "tilecount":100,
         "tileheight":32,
         "tilewidth":32
        }, 
        {
         "columns":9,
         "firstgid":2081,
         "image":"tilesets\/mapUtilities.png",
         "imageheight":32,
         "imagewidth":288,
         "margin":0,
         "name":"mapUtilities",
         "properties":[
                {
                 "name":"tilesetCopyright",
                 "type":"string",
                 "value":"mapUtilities.png\n-----\nCC0\nCCC"
                }],
         "spacing":0,
         "tilecount":9,
         "tileheight":32,
         "tiles":[
                {
                 "id":3,
                 "properties":[
                        {
                         "name":"collides",
                         "type":"bool",
                         "value":true
                        }]
                }],
         "tilewidth":32
        }],
 "tilewidth":32,
 "type":"map",
 "version":"1.6",
 "width":13
}