{ "compressionlevel":-1,
 "height":33,
 "infinite":false,
 "layers":[
        {
         "id":34,
         "layers":[
                {
                 "data":[0, 0, 0, 0, 0, 0, 0, 0, 0, 0, 0, 0, 0, 0, 0, 0, 0, 0, 0, 0, 0, 0, 0, 0, 0, 0, 0, 0, 0, 0, 0, 0, 0, 0, 0, 0, 0, 0, 0, 0, 0, 0, 0, 0, 0, 0, 0, 0, 0, 0, 0, 0, 0, 0, 0, 0, 0, 0, 0, 0, 0, 0, 0, 0, 0, 0, 0, 0, 0, 0, 0, 0, 0, 0, 0, 0, 0, 0, 0, 0, 0, 0, 0, 0, 0, 0, 0, 0, 0, 0, 0, 0, 0, 0, 0, 0, 0, 0, 0, 0, 0, 0, 0, 0, 0, 0, 0, 0, 0, 0, 0, 0, 0, 0, 0, 0, 0, 0, 0, 0, 0, 0, 0, 0, 0, 0, 0, 0, 0, 0, 0, 0, 0, 0, 0, 0, 0, 0, 0, 0, 0, 0, 0, 0, 0, 0, 0, 0, 0, 0, 0, 0, 0, 0, 0, 0, 0, 0, 0, 0, 0, 0, 0, 0, 0, 0, 0, 0, 0, 0, 0, 0, 0, 0, 0, 0, 0, 0, 0, 0, 0, 0, 0, 0, 0, 0, 0, 0, 0, 0, 0, 0, 0, 0, 0, 0, 0, 0, 0, 0, 0, 0, 0, 0, 0, 0, 0, 0, 0, 0, 0, 0, 0, 0, 0, 0, 0, 0, 0, 0, 0, 0, 0, 0, 0, 0, 0, 0, 0, 0, 0, 0, 0, 0, 0, 0, 0, 0, 0, 0, 0, 0, 0, 0, 0, 0, 0, 0, 0, 0, 0, 0, 0, 0, 0, 0, 0, 0, 0, 0, 0, 0, 0, 0, 0, 0, 0, 0, 0, 0, 0, 0, 0, 0, 0, 0, 0, 0, 0, 0, 0, 0, 0, 0, 0, 0, 0, 0, 0, 0, 0, 0, 0, 0, 0, 0, 0, 0, 0, 0, 0, 0, 0, 0, 0, 0, 0, 0, 0, 0, 0, 0, 0, 0, 0, 0, 0, 0, 0, 0, 0, 0, 0, 0, 0, 0, 0, 0, 0, 0, 0, 0, 0, 0, 0, 0, 0, 0, 0, 0, 0, 0, 0, 0, 0, 0, 0, 0, 0, 0, 0, 0, 0, 0, 0, 0, 0, 0, 0, 0, 0, 0, 0, 0, 0, 0, 0, 0, 0, 0, 0, 0, 0, 0, 0, 0, 0, 0, 0, 0, 0, 0, 0, 0, 0, 0, 0, 0, 0, 0, 0, 0, 0, 0, 0, 0, 0, 0, 0, 0, 0, 0, 0, 0, 0, 0, 0, 0, 0, 0, 0, 0, 0, 0, 0, 0, 0, 0, 0, 0, 0, 0, 0, 0, 0, 0, 0, 0, 0, 0, 0, 0, 0, 0, 0, 0, 0, 0, 0, 0, 0, 0, 0, 0, 0, 0, 0, 0, 0, 0, 0, 0, 0, 0, 0, 0, 0, 0, 0, 0, 0, 0, 0, 0, 0, 0, 0, 0, 0, 0, 0, 0, 0, 0, 0, 0, 0, 0, 0, 0, 0, 0, 0, 0, 0, 0, 0, 0, 0, 0, 0, 0, 0, 0, 0, 0, 0, 0, 0, 0, 0, 0, 0, 0, 0, 0, 0, 0, 0, 0, 0, 0, 0, 0, 0, 0, 0, 0, 0, 0, 0, 0, 0, 0, 0, 0, 0, 0, 0, 0, 0, 0, 0, 0, 0, 0, 0, 0, 0, 0, 0, 0, 0, 0, 0, 0, 0, 0, 0, 0, 0, 0, 0, 0, 0, 0, 0, 0, 0, 0, 0, 0, 0, 0, 0, 0, 0, 0, 0, 0, 0, 0, 0, 0, 0, 0, 0, 0, 0, 0, 0, 0, 0, 0, 0, 0, 0, 0, 0, 0, 0, 0, 0, 0, 0, 0, 0, 0, 0, 0, 0, 0, 0, 0, 0, 0, 0, 0, 0, 0, 0, 0, 0, 0, 0, 0, 0, 0, 0, 0, 0, 0, 0, 0, 0, 0, 0, 0, 0, 0, 0, 0, 0, 0, 0, 0, 0, 0, 0, 0, 0, 0, 0, 0, 0, 0, 0, 0, 0, 0, 0, 0, 0, 0, 0, 0, 0, 0, 0, 0, 0, 0, 0, 0, 0, 0, 0, 0, 0, 0, 0, 0, 0, 0, 0, 0, 0, 0, 0, 0, 0, 0, 0, 0, 0, 0, 0, 0, 0, 0, 0, 0, 0, 0, 0, 0, 0, 0, 0, 0, 0, 0, 0, 0, 0, 0, 0, 0, 0, 0, 0, 0, 0, 0, 0, 0, 0, 0, 0, 0, 0, 0, 0, 0, 0, 0, 0, 0, 0, 0, 8402, 0, 0, 0, 0, 0, 0, 0, 0, 0, 0, 0, 0, 0, 0, 0, 0, 0, 0, 0, 0, 0, 0, 0, 0, 0, 0, 0, 0, 0, 0, 0, 0, 0, 0, 0, 0, 0, 0, 0, 0, 0, 0, 0, 0, 0, 0, 0, 0, 0, 0, 0, 0, 0, 0, 0, 0, 0, 0, 0, 0, 0, 0, 0, 0, 0, 0, 0, 0, 0, 0, 0, 0, 0, 0, 0, 0, 0, 0, 0, 0, 0, 0, 0, 0, 0, 0, 0, 0, 0, 0, 0, 0, 0, 0, 0, 0, 0, 0, 0, 0, 0, 0, 0, 0, 0, 0, 0, 0, 0, 0, 0, 0, 0, 0, 0, 0, 0, 0, 0, 0, 0, 0, 0, 0, 0, 0, 0, 0, 0, 0, 0, 0, 0, 0, 0, 0, 0, 0, 0, 0, 0, 0, 0, 0, 0, 0, 0, 0, 0, 0, 0, 0, 0, 0, 0, 0, 0, 0, 0, 0, 0, 0, 0, 0, 0, 0, 0, 0, 0, 0, 0, 0, 0, 0, 0, 0, 0, 0, 0, 0, 0, 0, 0, 0, 0, 0, 0, 0, 0, 0, 0, 0, 0, 0, 0, 0, 0, 0, 0, 0, 0, 0, 0, 0, 0, 0, 0, 0, 0, 0, 0, 0, 0, 0, 0, 0, 0, 0, 0, 0, 0, 0, 0, 0, 0, 0, 0, 0, 0, 0, 0, 0, 0, 0, 0, 0, 0, 0, 0, 0, 0, 0, 0, 0, 0, 0, 0, 0, 0, 0, 0, 0, 0, 0, 0, 0, 0, 0, 0],
                 "height":33,
                 "id":8,
                 "name":"start",
                 "opacity":1,
                 "properties":[
                        {
                         "name":"startLayer",
                         "type":"bool",
                         "value":true
                        }],
                 "type":"tilelayer",
                 "visible":true,
                 "width":30,
                 "x":0,
                 "y":0
                }],
         "name":"Start-Ebenen",
         "opacity":1,
         "type":"group",
         "visible":true,
         "x":0,
         "y":0
        }, 
        {
         "id":14,
         "layers":[
                {
                 "data":[0, 0, 0, 0, 0, 0, 0, 0, 0, 0, 0, 0, 0, 0, 0, 0, 0, 0, 0, 0, 0, 0, 0, 0, 0, 0, 0, 0, 0, 0, 0, 0, 0, 0, 0, 0, 0, 0, 0, 0, 0, 0, 0, 0, 0, 0, 0, 0, 0, 0, 0, 0, 0, 0, 0, 0, 0, 0, 0, 0, 0, 0, 0, 0, 0, 0, 0, 0, 0, 0, 0, 0, 0, 0, 0, 0, 0, 0, 0, 0, 0, 0, 0, 0, 0, 0, 0, 0, 0, 0, 0, 0, 0, 0, 0, 0, 0, 0, 0, 0, 0, 0, 0, 0, 0, 0, 0, 0, 0, 0, 0, 0, 0, 0, 0, 0, 0, 0, 0, 0, 0, 0, 0, 0, 0, 0, 0, 0, 0, 0, 0, 0, 0, 0, 0, 0, 0, 0, 0, 0, 0, 0, 0, 0, 0, 0, 0, 0, 0, 0, 0, 0, 0, 0, 0, 0, 0, 0, 0, 0, 0, 0, 0, 0, 0, 0, 0, 0, 0, 0, 0, 0, 0, 0, 0, 0, 0, 0, 0, 0, 0, 0, 0, 0, 0, 0, 0, 0, 0, 0, 0, 0, 0, 0, 0, 0, 0, 0, 0, 0, 0, 0, 0, 0, 0, 0, 0, 0, 0, 0, 0, 0, 0, 0, 0, 0, 0, 0, 0, 0, 0, 0, 0, 0, 0, 0, 0, 0, 0, 0, 0, 0, 0, 0, 0, 0, 0, 0, 0, 0, 0, 0, 0, 0, 0, 0, 0, 0, 0, 0, 0, 0, 0, 0, 0, 0, 0, 0, 0, 0, 0, 0, 0, 0, 0, 0, 0, 0, 0, 0, 0, 0, 0, 0, 0, 0, 0, 0, 0, 0, 0, 0, 0, 0, 0, 0, 0, 0, 0, 0, 0, 0, 0, 0, 0, 0, 0, 0, 0, 0, 0, 0, 0, 0, 0, 0, 0, 0, 0, 0, 0, 0, 0, 0, 0, 0, 0, 0, 0, 0, 0, 0, 0, 0, 0, 0, 0, 0, 0, 0, 0, 0, 0, 0, 0, 0, 0, 0, 0, 0, 0, 0, 0, 0, 0, 0, 0, 0, 0, 0, 0, 0, 0, 0, 0, 0, 0, 0, 0, 0, 0, 0, 0, 0, 0, 0, 0, 0, 0, 0, 0, 0, 0, 0, 0, 0, 0, 0, 0, 0, 0, 0, 0, 0, 0, 0, 0, 0, 0, 0, 0, 0, 0, 0, 0, 0, 0, 0, 0, 0, 0, 0, 0, 0, 0, 0, 0, 0, 0, 0, 0, 0, 0, 0, 0, 0, 0, 0, 0, 0, 0, 0, 0, 0, 0, 0, 0, 0, 0, 0, 0, 0, 0, 0, 0, 0, 0, 0, 0, 0, 0, 0, 0, 0, 0, 0, 0, 0, 0, 0, 0, 0, 0, 0, 0, 0, 0, 0, 0, 0, 0, 0, 0, 0, 0, 0, 0, 0, 0, 0, 0, 0, 0, 0, 0, 0, 0, 0, 0, 0, 0, 0, 0, 0, 0, 0, 0, 0, 0, 0, 0, 0, 0, 0, 0, 0, 0, 0, 0, 0, 0, 0, 0, 0, 0, 0, 0, 0, 0, 0, 0, 0, 0, 0, 0, 0, 0, 0, 0, 0, 0, 0, 0, 0, 0, 0, 0, 0, 0, 0, 0, 0, 0, 0, 0, 0, 0, 0, 0, 0, 0, 0, 0, 0, 0, 0, 0, 0, 0, 0, 0, 0, 0, 0, 0, 0, 0, 0, 0, 0, 0, 0, 0, 0, 0, 0, 0, 0, 0, 0, 0, 0, 0, 0, 0, 0, 0, 0, 0, 0, 0, 0, 0, 0, 0, 0, 0, 0, 0, 0, 0, 0, 0, 0, 0, 0, 0, 0, 0, 0, 0, 0, 0, 0, 0, 0, 0, 0, 0, 0, 0, 0, 0, 0, 0, 0, 0, 0, 0, 0, 0, 0, 0, 0, 0, 0, 0, 0, 0, 0, 0, 0, 0, 0, 0, 0, 0, 0, 0, 0, 0, 0, 0, 0, 0, 0, 0, 0, 0, 0, 0, 0, 0, 0, 0, 0, 0, 0, 0, 0, 0, 0, 0, 0, 0, 0, 0, 0, 0, 0, 0, 0, 0, 0, 0, 0, 0, 0, 0, 0, 0, 0, 0, 0, 0, 0, 0, 0, 0, 0, 0, 0, 0, 0, 0, 0, 0, 0, 0, 8401, 0, 0, 0, 0, 0, 0, 0, 0, 0, 0, 0, 0, 0, 0, 0, 0, 0, 0, 0, 0, 0, 0, 0, 0, 0, 0, 0, 0, 0, 0, 0, 0, 0, 0, 0, 0, 0, 0, 0, 0, 0, 0, 0, 0, 0, 0, 0, 0, 0, 0, 0, 0, 0, 0, 0, 0, 0, 0, 0, 0, 0, 0, 0, 0, 0, 0, 0, 0, 0, 0, 0, 0, 0, 0, 0, 0, 0, 0, 0, 0, 0, 0, 0, 0, 0, 0, 0, 0, 0, 0, 0, 0, 0, 0, 0, 0, 0, 0, 0, 0, 0, 0, 0, 0, 0, 0, 0, 0, 0, 0, 0, 0, 0, 0, 0, 0, 0, 0, 0, 0, 0, 0, 0, 0, 0, 0, 0, 0, 0, 0, 0, 0, 0, 0, 0, 0, 0, 0, 0, 0, 0, 0, 0, 0, 0, 0, 0, 0, 0, 0, 0, 0, 0, 0, 0, 0, 0, 0, 0, 0, 0, 0, 0, 0, 0, 0, 0, 0, 0, 0, 0, 0, 0, 0, 0, 0, 0, 0, 0, 0, 0, 0, 0, 0, 0, 0, 0, 0, 0, 0, 0, 0, 0, 0, 0, 0, 0, 0, 0, 0, 0, 0, 0, 0, 0, 0, 0, 0, 0, 0, 0, 0, 0, 0, 0, 0, 0, 0, 0, 0, 0, 0, 0, 0, 0, 0, 0, 0, 0, 0, 0, 0, 0, 0, 0, 0, 0, 0, 0, 0, 0, 0, 0, 0, 0, 0, 0, 0, 0, 0, 0, 0, 0, 0, 0, 0, 0, 0, 0, 0, 0, 0, 0, 0, 0, 0, 0, 0, 0, 0, 0, 0, 0, 0, 0, 0, 0, 0, 0, 0, 0, 0, 0, 0, 0, 0, 0, 0, 0, 0],
                 "height":33,
                 "id":15,
                 "name":"exit_main",
                 "opacity":1,
                 "properties":[
                        {
                         "name":"exitUrl",
                         "type":"string",
                         "value":"workshop.json#start_island"
                        }],
                 "type":"tilelayer",
                 "visible":true,
                 "width":30,
                 "x":0,
                 "y":0
                }],
         "name":"Exit-Ebenen",
         "opacity":1,
         "type":"group",
         "visible":true,
         "x":0,
         "y":0
        }, 
        {
         "id":18,
         "layers":[
                {
                 "data":[0, 0, 0, 0, 0, 0, 0, 0, 0, 0, 0, 0, 0, 0, 0, 0, 0, 0, 0, 0, 0, 0, 0, 0, 0, 0, 0, 0, 0, 0, 0, 0, 0, 0, 0, 0, 0, 0, 0, 0, 0, 0, 0, 0, 0, 0, 0, 0, 0, 0, 0, 0, 0, 0, 0, 0, 0, 0, 0, 0, 0, 0, 0, 0, 0, 0, 0, 0, 0, 0, 0, 0, 0, 0, 0, 0, 0, 0, 0, 0, 0, 0, 0, 0, 0, 0, 0, 0, 0, 0, 0, 0, 0, 0, 0, 0, 0, 0, 0, 0, 0, 0, 0, 0, 0, 0, 0, 0, 0, 0, 0, 0, 0, 0, 0, 0, 0, 0, 0, 0, 0, 0, 0, 0, 0, 0, 0, 0, 0, 0, 0, 0, 0, 0, 0, 0, 0, 0, 0, 0, 0, 0, 0, 0, 0, 0, 0, 0, 0, 0, 0, 0, 0, 0, 0, 0, 0, 0, 0, 0, 0, 0, 0, 0, 0, 0, 0, 0, 0, 0, 0, 0, 0, 0, 0, 0, 0, 0, 0, 0, 0, 0, 0, 0, 0, 0, 0, 0, 0, 0, 0, 0, 0, 0, 0, 0, 0, 0, 0, 0, 0, 0, 0, 0, 0, 0, 0, 0, 0, 0, 0, 0, 0, 0, 0, 0, 0, 0, 0, 0, 0, 0, 0, 0, 0, 0, 0, 0, 0, 0, 0, 0, 0, 0, 0, 0, 0, 0, 0, 0, 0, 0, 0, 0, 0, 0, 0, 0, 0, 0, 0, 0, 0, 0, 0, 0, 0, 0, 0, 0, 0, 0, 0, 0, 0, 0, 0, 0, 0, 0, 0, 0, 0, 0, 0, 0, 0, 0, 0, 0, 0, 0, 0, 0, 0, 0, 0, 0, 0, 0, 0, 0, 0, 0, 0, 0, 0, 0, 0, 0, 0, 0, 0, 0, 0, 0, 0, 0, 0, 0, 0, 0, 0, 0, 0, 0, 0, 0, 0, 0, 0, 0, 0, 0, 0, 0, 0, 0, 0, 0, 0, 0, 0, 0, 0, 0, 0, 0, 0, 0, 0, 0, 0, 0, 0, 0, 0, 0, 0, 0, 0, 0, 0, 0, 0, 0, 0, 0, 0, 0, 0, 0, 0, 0, 0, 0, 0, 0, 0, 0, 0, 0, 0, 0, 0, 0, 0, 0, 0, 0, 0, 0, 0, 0, 0, 0, 0, 0, 0, 0, 0, 0, 0, 0, 0, 0, 0, 0, 0, 0, 0, 0, 0, 0, 0, 0, 0, 0, 0, 0, 0, 0, 0, 0, 0, 0, 0, 0, 0, 0, 0, 0, 0, 0, 0, 0, 0, 0, 0, 0, 0, 0, 0, 0, 0, 0, 0, 0, 0, 0, 0, 0, 0, 0, 0, 0, 0, 0, 0, 0, 0, 0, 0, 0, 0, 0, 0, 0, 0, 0, 0, 0, 0, 0, 0, 0, 0, 0, 0, 0, 0, 0, 0, 0, 0, 0, 0, 0, 0, 0, 0, 0, 0, 0, 0, 0, 0, 0, 0, 0, 0, 0, 0, 0, 0, 0, 0, 0, 0, 0, 0, 0, 0, 0, 0, 0, 0, 0, 0, 0, 0, 0, 0, 0, 0, 0, 0, 0, 0, 0, 0, 0, 0, 0, 0, 0, 0, 0, 0, 0, 0, 0, 0, 0, 0, 0, 0, 0, 0, 0, 0, 0, 0, 0, 0, 0, 0, 0, 0, 0, 0, 0, 0, 0, 0, 0, 0, 0, 0, 0, 0, 0, 0, 0, 0, 0, 0, 0, 0, 0, 0, 0, 0, 0, 0, 0, 0, 0, 0, 0, 0, 0, 0, 0, 0, 0, 0, 0, 0, 0, 0, 0, 0, 0, 0, 0, 0, 0, 0, 0, 0, 0, 0, 0, 0, 0, 0, 0, 0, 0, 0, 0, 0, 0, 0, 0, 0, 0, 0, 0, 0, 0, 0, 0, 0, 0, 0, 0, 0, 0, 0, 0, 0, 0, 0, 0, 0, 0, 0, 0, 0, 0, 0, 0, 0, 0, 0, 0, 0, 8409, 0, 0, 0, 0, 0, 0, 0, 0, 0, 0, 0, 0, 0, 0, 0, 0, 0, 0, 0, 0, 0, 0, 0, 0, 0, 0, 0, 0, 0, 0, 0, 0, 0, 0, 0, 0, 0, 0, 0, 0, 0, 0, 0, 0, 0, 0, 0, 0, 0, 0, 0, 0, 0, 0, 0, 0, 0, 0, 0, 0, 0, 0, 0, 0, 0, 0, 0, 0, 0, 0, 0, 0, 0, 0, 0, 0, 0, 0, 0, 0, 0, 0, 0, 0, 0, 0, 0, 0, 0, 0, 0, 0, 0, 0, 0, 0, 0, 0, 0, 0, 0, 0, 0, 0, 0, 0, 0, 0, 0, 0, 0, 0, 0, 0, 0, 0, 0, 0, 0, 0, 0, 0, 0, 0, 0, 0, 0, 0, 0, 0, 0, 0, 0, 0, 0, 0, 0, 0, 0, 0, 0, 0, 0, 0, 0, 0, 0, 0, 0, 0, 0, 0, 0, 0, 0, 0, 0, 0, 0, 0, 0, 0, 0, 0, 0, 0, 0, 0, 0, 0, 0, 0, 0, 0, 0, 0, 0, 0, 0, 0, 0, 0, 0, 0, 0, 0, 0, 0, 0, 0, 0, 0, 0, 0, 0, 0, 0, 0, 0, 0, 0, 0, 0, 0, 0, 0, 0, 0, 0, 0, 0, 0, 0, 0, 0, 0, 0, 0, 0, 0, 0, 0, 0, 0, 0, 0, 0, 0, 0, 0, 0, 0, 0, 0, 0, 0, 0, 0, 0, 0, 0, 0, 0, 0, 0, 0, 0, 0, 0, 0, 0, 0, 0, 0, 0, 0, 0, 0, 0, 0, 0, 0, 0, 0, 0, 0, 0, 0, 0, 0, 0, 0, 0, 0, 0, 0, 0, 0, 0, 0, 0, 0, 0, 0, 0, 0, 0, 0, 0, 0, 0, 0, 0, 0, 0, 0, 0, 0, 0, 0, 0, 0, 0, 0, 0, 0, 0, 0, 0, 0, 0, 0, 0, 0, 0, 0, 0, 0, 0, 0, 0, 0, 0, 0, 0, 0, 0, 0, 0, 0, 0, 0, 0, 0, 0, 0, 0, 0, 0, 0],
                 "height":33,
                 "id":19,
                 "name":"Schild",
                 "opacity":1,
                 "properties":[
                        {
                         "name":"openWebsite",
                         "type":"string",
                         "value":"https:\/\/archive.org\/details\/monkey_dos"
                        }, 
                        {
                         "name":"openWebsiteTrigger",
                         "type":"string",
                         "value":"onaction"
                        }, 
                        {
                         "name":"openWebsiteTriggerMessage",
                         "type":"string",
                         "value":"Dr\u00fccke SPACE, um die Nachricht zu lesen. \/ Presse SPACE to read the message."
                        }],
                 "type":"tilelayer",
                 "visible":true,
                 "width":30,
                 "x":0,
                 "y":0
                }, 
                {
                 "data":[0, 0, 0, 0, 0, 0, 0, 0, 0, 0, 0, 0, 0, 0, 0, 0, 0, 0, 0, 0, 0, 0, 0, 0, 0, 0, 0, 0, 0, 0, 0, 0, 0, 0, 0, 0, 0, 0, 0, 0, 0, 0, 0, 0, 0, 0, 0, 0, 0, 0, 0, 0, 0, 0, 0, 0, 0, 0, 0, 0, 0, 0, 0, 0, 0, 0, 0, 0, 0, 0, 0, 0, 0, 0, 0, 0, 0, 0, 0, 0, 0, 0, 0, 0, 0, 0, 0, 0, 0, 0, 0, 0, 0, 0, 0, 0, 0, 0, 0, 0, 0, 0, 0, 0, 0, 0, 0, 0, 0, 0, 0, 0, 0, 0, 0, 0, 0, 0, 0, 0, 0, 0, 0, 0, 0, 0, 0, 0, 0, 0, 0, 0, 0, 0, 0, 0, 0, 0, 0, 0, 0, 0, 0, 0, 0, 0, 0, 0, 0, 0, 0, 0, 0, 0, 0, 0, 0, 0, 0, 0, 0, 0, 0, 0, 0, 0, 0, 0, 0, 0, 0, 0, 0, 0, 0, 0, 0, 0, 0, 0, 0, 0, 0, 0, 0, 0, 0, 0, 0, 0, 0, 0, 0, 0, 0, 0, 0, 0, 0, 0, 0, 0, 0, 0, 0, 0, 0, 0, 0, 0, 0, 0, 0, 0, 0, 0, 0, 0, 0, 0, 0, 0, 0, 0, 0, 0, 0, 0, 0, 0, 0, 0, 0, 0, 0, 0, 0, 0, 0, 0, 0, 0, 0, 0, 0, 0, 0, 0, 0, 0, 0, 0, 0, 0, 0, 0, 0, 0, 0, 0, 0, 0, 0, 0, 0, 0, 0, 0, 0, 0, 0, 0, 0, 0, 0, 0, 0, 0, 8406, 8406, 8406, 8406, 8406, 8406, 8406, 8406, 8406, 8406, 8406, 8406, 8406, 8406, 0, 0, 0, 0, 0, 0, 0, 0, 0, 0, 0, 0, 0, 0, 0, 8406, 8406, 8406, 8406, 8406, 8406, 8406, 8406, 8406, 8406, 8406, 8406, 8406, 8406, 8406, 8406, 0, 0, 0, 0, 0, 0, 0, 0, 0, 0, 0, 0, 0, 8406, 8406, 8406, 8406, 8406, 8406, 8406, 8406, 8406, 8406, 8406, 8406, 8406, 8406, 8406, 8406, 8406, 8406, 0, 0, 0, 0, 0, 0, 0, 0, 0, 0, 0, 8406, 8406, 8406, 8406, 8406, 8406, 8406, 8406, 8406, 8406, 8406, 8406, 8406, 8406, 8406, 8406, 8406, 8406, 8406, 8406, 0, 0, 0, 0, 0, 0, 0, 0, 0, 0, 8406, 8406, 8406, 8406, 8406, 8406, 8406, 8406, 8406, 8406, 8406, 8406, 8406, 8406, 8406, 8406, 8406, 8406, 8406, 8406, 0, 0, 0, 0, 0, 0, 0, 0, 0, 0, 8406, 8406, 8406, 8406, 8406, 8406, 8406, 8406, 8406, 8406, 8406, 8406, 8406, 8406, 8406, 8406, 8406, 8406, 8406, 8406, 0, 0, 0, 0, 0, 0, 0, 0, 0, 0, 8406, 8406, 8406, 8406, 8406, 8406, 8406, 8406, 8406, 8406, 8406, 8406, 8406, 8406, 8406, 8406, 8406, 8406, 8406, 8406, 0, 0, 0, 0, 0, 0, 0, 0, 0, 0, 8406, 8406, 8406, 8406, 8406, 8406, 8406, 8406, 8406, 8406, 8406, 8406, 8406, 8406, 8406, 8406, 8406, 8406, 8406, 8406, 0, 0, 0, 0, 0, 0, 0, 0, 0, 0, 8406, 8406, 8406, 8406, 8406, 8406, 8406, 8406, 8406, 8406, 8406, 8406, 8406, 8406, 8406, 8406, 8406, 8406, 8406, 8406, 0, 0, 0, 0, 0, 0, 0, 0, 0, 0, 8406, 8406, 8406, 8406, 8406, 8406, 8406, 8406, 8406, 8406, 8406, 8406, 8406, 8406, 8406, 8406, 8406, 8406, 8406, 8406, 0, 0, 0, 0, 0, 0, 0, 0, 0, 0, 8406, 8406, 8406, 8406, 8406, 8406, 8406, 8406, 8406, 8406, 8406, 8406, 8406, 8406, 8406, 8406, 8406, 8406, 8406, 8406, 0, 0, 0, 0, 0, 0, 0, 0, 0, 0, 8406, 8406, 8406, 8406, 8406, 8406, 8406, 8406, 8406, 8406, 8406, 8406, 8406, 8406, 8406, 8406, 8406, 8406, 8406, 8406, 0, 0, 0, 0, 0, 0, 0, 0, 0, 0, 8406, 8406, 8406, 8406, 8406, 8406, 8406, 8406, 8406, 8406, 8406, 8406, 8406, 8406, 8406, 8406, 8406, 8406, 8406, 8406, 0, 0, 0, 0, 0, 0, 0, 0, 0, 0, 8406, 8406, 8406, 8406, 8406, 8406, 8406, 8406, 8406, 8406, 8406, 8406, 8406, 8406, 8406, 8406, 8406, 8406, 8406, 8406, 0, 0, 0, 0, 0, 0, 0, 0, 0, 0, 8406, 8406, 8406, 8406, 8406, 8406, 8406, 8406, 8406, 8406, 8406, 8406, 8406, 8406, 8406, 8406, 8406, 8406, 8406, 8406, 0, 0, 0, 0, 0, 0, 0, 0, 0, 0, 8406, 8406, 8406, 8406, 8406, 8406, 8406, 8406, 8406, 8406, 8406, 8406, 8406, 8406, 8406, 8406, 8406, 8406, 8406, 8406, 0, 0, 0, 0, 0, 0, 0, 0, 0, 0, 8406, 8406, 8406, 8406, 8406, 8406, 8406, 8406, 8406, 8406, 8406, 8406, 8406, 8406, 8406, 8406, 8406, 8406, 8406, 8406, 0, 0, 0, 0, 0, 0, 0, 0, 0, 0, 8406, 8406, 8406, 8406, 8406, 8406, 8406, 8406, 8406, 8406, 8406, 8406, 8406, 8406, 8406, 8406, 8406, 8406, 8406, 0, 0, 0, 0, 0, 0, 0, 0, 0, 0, 0, 0, 8406, 8406, 8406, 8406, 8406, 8406, 8406, 8406, 8406, 8406, 8406, 8406, 8406, 8406, 8406, 8406, 8406, 0, 0, 0, 0, 0, 0, 0, 0, 0, 0, 0, 0, 0, 0, 8406, 8406, 8406, 8406, 8406, 8406, 8406, 8406, 8406, 8406, 8406, 8406, 8406, 8406, 8406, 0, 0, 0, 0, 0, 0, 0, 0, 0, 0, 0, 0, 0, 0, 0, 0, 0, 0, 0, 0, 0, 0, 0, 0, 0, 0, 0, 0, 0, 0, 0, 0, 0, 0, 0, 0, 0, 0, 0, 0, 0, 0, 0, 0, 0, 0, 0, 0, 0, 0, 0, 0, 0, 0, 0, 0, 0, 0, 0, 0, 0, 0, 0, 0, 0, 0, 0, 0, 0, 0, 0, 0, 0, 0, 0, 0, 0, 0, 0, 0, 0, 0, 0, 0, 0, 0, 0, 0, 0, 0, 0, 0, 0, 0, 0, 0, 0, 0, 0, 0, 0, 0, 0, 0, 0, 0, 0, 0, 0, 0, 0, 0, 0, 0, 0, 0, 0, 0, 0, 0, 0, 0, 0, 0, 0, 0, 0, 0],
                 "height":33,
                 "id":31,
                 "name":"Meeresrauschen",
                 "opacity":1,
                 "properties":[
                        {
                         "name":"audioLoop",
                         "type":"bool",
                         "value":true
                        }, 
                        {
                         "name":"playAudio",
                         "type":"string",
                         "value":"sounds\/Meeresrauschen.mp3"
                        }],
                 "type":"tilelayer",
                 "visible":true,
                 "width":30,
                 "x":0,
                 "y":0
                }],
         "name":"Spezial-Ebenen",
         "opacity":1,
         "type":"group",
         "visible":true,
         "x":0,
         "y":0
        }, 
        {
         "data":[8404, 8404, 8404, 8404, 8404, 8404, 8404, 8404, 8404, 8404, 8404, 8404, 8404, 8404, 8404, 8404, 8404, 8404, 8404, 8404, 8404, 8404, 8404, 8404, 8404, 8404, 8404, 8404, 8404, 8404, 8404, 8404, 8404, 8404, 8404, 8404, 8404, 8404, 8404, 8404, 8404, 8404, 8404, 8404, 8404, 8404, 8404, 8404, 8404, 8404, 8404, 8404, 8404, 8404, 8404, 8404, 8404, 8404, 8404, 8404, 8404, 8404, 8404, 8404, 8404, 8404, 8404, 8404, 8404, 8404, 8404, 8404, 8404, 8404, 8404, 8404, 8404, 8404, 8404, 8404, 8404, 8404, 8404, 8404, 8404, 8404, 8404, 8404, 8404, 8404, 8404, 8404, 8404, 8404, 8404, 8404, 8404, 8404, 8404, 8404, 8404, 8404, 8404, 8404, 8404, 8404, 8404, 8404, 8404, 8404, 8404, 8404, 8404, 8404, 8404, 8404, 8404, 8404, 8404, 8404, 8404, 8404, 8404, 8404, 8404, 8404, 8404, 8404, 8404, 8404, 8404, 8404, 8404, 8404, 8404, 8404, 8404, 8404, 8404, 8404, 8404, 8404, 8404, 8404, 8404, 8404, 8404, 8404, 8404, 8404, 8404, 8404, 8404, 8404, 8404, 8404, 8404, 8404, 8404, 8404, 8404, 8404, 8404, 8404, 8404, 8404, 8404, 8404, 8404, 8404, 8404, 8404, 8404, 8404, 8404, 8404, 8404, 8404, 8404, 8404, 8404, 8404, 8404, 8404, 8404, 8404, 8404, 8404, 8404, 8404, 8404, 8404, 8404, 8404, 8404, 8404, 8404, 8404, 8404, 8404, 8404, 8404, 8404, 8404, 8404, 8404, 8404, 8404, 8404, 8404, 8404, 8404, 8404, 8404, 8404, 8404, 8404, 8404, 8404, 8404, 8404, 8404, 8404, 8404, 8404, 8404, 8404, 8404, 8404, 8404, 8404, 8404, 8404, 8404, 8404, 8404, 8404, 8404, 8404, 8404, 8404, 8404, 8404, 8404, 8404, 8404, 8404, 8404, 8404, 8404, 8404, 8404, 8404, 8404, 8404, 8404, 8404, 8404, 8404, 8404, 8404, 8404, 8404, 8404, 8404, 8404, 8404, 8404, 8404, 8404, 8404, 8404, 8404, 8404, 8404, 8404, 8404, 8404, 0, 0, 0, 0, 0, 0, 0, 0, 0, 0, 0, 0, 0, 0, 8404, 8404, 8404, 8404, 8404, 8404, 8404, 8404, 8404, 8404, 8404, 8404, 8404, 8404, 8404, 0, 0, 0, 0, 0, 0, 0, 0, 0, 0, 0, 0, 0, 0, 0, 0, 8404, 8404, 8404, 8404, 8404, 8404, 8404, 8404, 8404, 8404, 8404, 8404, 8404, 0, 0, 0, 0, 0, 0, 0, 0, 0, 0, 0, 0, 0, 0, 0, 0, 0, 0, 8404, 8404, 8404, 8404, 8404, 8404, 8404, 8404, 8404, 8404, 8404, 0, 0, 0, 0, 0, 0, 0, 0, 0, 0, 0, 0, 0, 0, 0, 0, 0, 0, 0, 0, 8404, 8404, 8404, 8404, 8404, 8404, 8404, 8404, 8404, 8404, 0, 0, 0, 0, 0, 0, 0, 0, 0, 0, 0, 0, 0, 0, 0, 0, 0, 0, 0, 0, 8404, 8404, 8404, 8404, 8404, 8404, 8404, 8404, 8404, 8404, 0, 0, 0, 0, 0, 0, 0, 0, 0, 0, 0, 0, 0, 0, 0, 0, 0, 0, 0, 0, 8404, 8404, 8404, 8404, 8404, 8404, 8404, 8404, 8404, 8404, 0, 0, 0, 0, 0, 0, 0, 0, 0, 0, 0, 0, 0, 0, 0, 0, 0, 0, 0, 0, 8404, 8404, 8404, 8404, 8404, 8404, 8404, 8404, 8404, 8404, 0, 0, 0, 0, 0, 0, 0, 0, 0, 0, 0, 0, 0, 0, 0, 0, 0, 0, 0, 0, 8404, 8404, 8404, 8404, 8404, 8404, 8404, 8404, 8404, 8404, 0, 0, 0, 0, 0, 0, 0, 0, 0, 0, 0, 0, 8404, 8404, 0, 0, 0, 0, 0, 0, 8404, 8404, 8404, 8404, 8404, 8404, 8404, 8404, 8404, 8404, 0, 0, 0, 0, 0, 0, 0, 0, 0, 0, 0, 0, 0, 0, 0, 0, 0, 0, 0, 0, 8404, 8404, 8404, 8404, 8404, 8404, 8404, 8404, 8404, 8404, 0, 0, 0, 0, 0, 0, 0, 0, 0, 0, 0, 0, 0, 0, 0, 0, 0, 0, 0, 0, 8404, 8404, 8404, 8404, 8404, 8404, 8404, 8404, 8404, 8404, 0, 0, 0, 0, 0, 0, 0, 0, 0, 0, 0, 0, 0, 0, 8404, 0, 0, 0, 0, 0, 8404, 8404, 8404, 8404, 8404, 8404, 8404, 8404, 8404, 8404, 0, 0, 0, 0, 0, 0, 0, 0, 0, 0, 0, 0, 0, 0, 0, 0, 0, 0, 0, 0, 8404, 8404, 8404, 8404, 8404, 8404, 8404, 8404, 8404, 8404, 0, 0, 0, 0, 0, 0, 0, 0, 0, 0, 0, 0, 0, 0, 0, 0, 0, 0, 0, 0, 8404, 8404, 8404, 8404, 8404, 8404, 8404, 8404, 8404, 8404, 0, 0, 0, 0, 0, 0, 0, 0, 0, 0, 0, 0, 0, 0, 0, 0, 0, 0, 0, 0, 8404, 8404, 8404, 8404, 8404, 8404, 8404, 8404, 8404, 8404, 0, 0, 0, 0, 8404, 0, 0, 0, 0, 0, 0, 0, 0, 0, 0, 0, 0, 0, 0, 0, 8404, 8404, 8404, 8404, 8404, 8404, 8404, 8404, 8404, 8404, 0, 0, 0, 0, 0, 0, 0, 0, 0, 0, 0, 0, 0, 0, 0, 0, 0, 0, 0, 0, 8404, 8404, 8404, 8404, 8404, 8404, 8404, 8404, 8404, 8404, 8404, 0, 0, 0, 0, 0, 0, 0, 0, 0, 0, 0, 0, 0, 0, 0, 0, 0, 0, 8404, 8404, 8404, 8404, 8404, 8404, 8404, 8404, 8404, 8404, 8404, 8404, 8404, 0, 0, 0, 0, 0, 0, 0, 0, 0, 0, 0, 0, 0, 0, 0, 0, 8404, 8404, 8404, 8404, 8404, 8404, 8404, 8404, 8404, 8404, 8404, 8404, 8404, 8404, 8404, 0, 0, 0, 0, 0, 0, 0, 0, 0, 0, 0, 0, 0, 0, 8404, 8404, 8404, 8404, 8404, 8404, 8404, 8404, 8404, 8404, 8404, 8404, 8404, 8404, 8404, 8404, 8404, 8404, 8404, 8404, 8404, 8404, 8404, 8404, 8404, 8404, 8404, 8404, 8404, 8404, 8404, 8404, 8404, 8404, 8404, 8404, 8404, 8404, 8404, 8404, 8404, 8404, 8404, 8404, 8404, 8404, 8404, 8404, 8404, 8404, 8404, 8404, 8404, 8404, 8404, 8404, 8404, 8404, 8404, 8404, 8404, 8404, 8404, 8404, 8404, 8404, 8404, 8404, 8404, 8404, 8404, 8404, 8404, 8404, 8404, 8404, 8404, 8404, 8404, 8404, 8404, 8404, 8404, 8404, 8404, 8404, 8404, 8404, 8404, 8404, 8404, 8404, 8404, 8404, 8404, 8404, 8404, 8404, 8404, 8404, 8404, 8404, 8404, 8404, 8404, 8404, 8404, 8404, 8404, 8404, 8404, 8404, 8404, 8404, 8404, 8404, 8404, 8404, 8404, 8404, 8404, 8404, 8404, 8404, 8404, 8404, 8404, 8404],
         "height":33,
         "id":7,
         "name":"Blocker",
         "opacity":1,
         "type":"tilelayer",
         "visible":true,
         "width":30,
         "x":0,
         "y":0
        }, 
        {
         "id":10,
         "layers":[
                {
                 "data":[5, 5, 5, 5, 5, 0, 0, 0, 0, 0, 0, 0, 0, 0, 0, 0, 0, 0, 0, 0, 0, 0, 0, 0, 0, 5, 5, 5, 5, 5, 5, 5, 5, 5, 5, 0, 0, 0, 0, 0, 0, 0, 0, 0, 0, 0, 0, 0, 0, 0, 0, 0, 0, 0, 0, 5, 5, 5, 5, 5, 5, 5, 5, 5, 5, 0, 0, 0, 0, 0, 0, 0, 0, 0, 0, 0, 0, 0, 0, 0, 0, 0, 0, 0, 0, 5, 5, 5, 5, 5, 5, 5, 5, 5, 5, 5, 5, 5, 5, 5, 5, 5, 5, 5, 5, 5, 5, 5, 5, 5, 5, 5, 5, 5, 5, 5, 5, 5, 5, 5, 5, 5, 5, 5, 5, 5, 5, 5, 5, 5, 5, 5, 5, 5, 5, 5, 5, 5, 5, 5, 5, 5, 5, 5, 5, 5, 5, 5, 5, 5, 5, 5, 5, 5, 5, 5, 5, 5, 5, 5, 5, 5, 5, 5, 5, 5, 5, 5, 5, 5, 5, 5, 5, 5, 5, 5, 5, 5, 5, 5, 5, 5, 5, 5, 5, 5, 5, 5, 5, 5, 5, 5, 5, 5, 5, 5, 5, 5, 5, 5, 5, 5, 5, 5, 5, 5, 5, 5, 5, 5, 5, 5, 5, 5, 5, 5, 5, 5, 5, 5, 5, 5, 5, 5, 5, 5, 5, 5, 5, 5, 5, 5, 5, 5, 5, 5, 5, 5, 5, 5, 5, 5, 5, 5, 5, 5, 5, 5, 5, 5, 5, 5, 5, 5, 5, 5, 5, 5, 5, 5, 5, 5, 5, 5, 5, 5, 5, 5, 5, 5, 5, 5, 5, 5, 5, 5, 5, 5, 5, 5, 5, 5, 5, 5, 5, 5, 5, 5, 5, 5, 5, 5, 5, 5, 5, 5, 5, 5, 5, 5, 5, 5, 5, 5, 5, 5, 5, 5, 5, 5, 5, 5, 5, 5, 5, 5, 5, 5, 5, 5, 5, 5, 5, 5, 5, 5, 5, 5, 5, 5, 5, 5, 5, 5, 5, 5, 5, 5, 5, 5, 5, 5, 5, 5, 5, 5, 5, 5, 5, 5, 5, 5, 5, 5, 5, 5, 5, 5, 5, 5, 5, 5, 5, 5, 5, 5, 5, 5, 5, 5, 5, 5, 5, 5, 5, 5, 5, 5, 5, 5, 5, 5, 5, 5, 5, 5, 5, 5, 5, 5, 5, 5, 5, 5, 5, 5, 5, 5, 5, 5, 5, 5, 5, 5, 5, 5, 5, 5, 5, 5, 5, 5, 5, 5, 5, 5, 5, 5, 5, 5, 5, 5, 5, 5, 5, 5, 5, 5, 5, 5, 5, 5, 5, 5, 5, 5, 5, 5, 5, 5, 5, 5, 5, 5, 5, 5, 5, 5, 5, 5, 5, 5, 5, 5, 5, 5, 5, 5, 5, 5, 5, 5, 5, 5, 5, 5, 5, 5, 5, 5, 5, 5, 5, 5, 5, 5, 5, 5, 5, 5, 5, 5, 5, 5, 5, 5, 5, 5, 5, 5, 5, 5, 5, 5, 5, 5, 5, 5, 5, 5, 5, 5, 5, 5, 5, 5, 5, 5, 5, 5, 5, 5, 5, 5, 5, 5, 5, 5, 5, 5, 5, 5, 5, 5, 5, 5, 5, 5, 5, 5, 5, 5, 5, 5, 5, 5, 5, 5, 5, 5, 5, 5, 5, 5, 5, 5, 5, 5, 5, 5, 5, 5, 5, 5, 5, 5, 5, 5, 5, 5, 5, 5, 5, 5, 5, 5, 5, 5, 5, 5, 5, 5, 5, 5, 5, 5, 5, 5, 5, 5, 5, 5, 5, 5, 5, 5, 5, 5, 5, 5, 5, 5, 5, 5, 5, 5, 5, 5, 5, 5, 5, 5, 5, 5, 5, 5, 5, 5, 5, 5, 5, 5, 5, 5, 5, 5, 5, 5, 5, 5, 5, 5, 5, 5, 5, 5, 5, 5, 5, 5, 5, 5, 5, 5, 5, 5, 5, 5, 5, 5, 5, 5, 5, 5, 5, 5, 5, 5, 5, 5, 5, 5, 5, 5, 5, 5, 5, 5, 5, 5, 5, 5, 5, 5, 5, 5, 5, 5, 5, 5, 5, 5, 5, 5, 5, 5, 5, 5, 5, 5, 5, 5, 5, 5, 5, 5, 5, 5, 5, 5, 5, 5, 5, 5, 5, 5, 5, 5, 5, 5, 5, 5, 5, 5, 5, 5, 5, 5, 5, 5, 5, 5, 5, 5, 5, 5, 5, 5, 5, 5, 5, 5, 5, 5, 5, 5, 5, 5, 5, 5, 5, 5, 5, 5, 5, 5, 5, 5, 5, 5, 5, 5, 5, 5, 5, 5, 5, 5, 5, 5, 5, 5, 5, 5, 5, 5, 5, 5, 5, 5, 5, 5, 5, 5, 5, 5, 5, 5, 5, 5, 5, 5, 5, 5, 5, 5, 5, 5, 5, 5, 5, 5, 5, 5, 5, 5, 5, 5, 5, 5, 5, 5, 5, 5, 5, 5, 5, 5, 5, 5, 5, 5, 5, 5, 5, 5, 5, 5, 5, 5, 5, 5, 5, 5, 5, 5, 5, 5, 5, 5, 5, 5, 5, 5, 5, 5, 5, 5, 5, 5, 5, 5, 5, 5, 5, 5, 5, 5, 5, 5, 5, 5, 5, 5, 5, 5, 5, 5, 5, 5, 5, 5, 5, 5, 5, 5, 5, 5, 5, 5, 5, 5, 5, 5, 5, 5, 5, 5, 5, 5, 5, 5, 5, 5, 5, 5, 5, 5, 5, 5, 5, 5, 5, 5, 5, 5, 5, 5, 5, 5, 5, 5, 5, 5, 5, 5, 5, 5, 5, 5, 5, 5, 5, 5, 5, 5, 5, 5, 5, 5, 5, 5, 5, 5, 5, 5, 5, 5, 5, 5, 5, 5, 5, 5, 5, 5, 5, 5, 5, 5, 5, 5, 5, 5, 5, 5, 5, 5, 5, 5, 5, 5, 5, 5, 5, 5, 5, 5, 5, 5, 5, 5, 5, 5, 5, 5, 5, 5, 5, 5, 5, 5, 5, 5, 5, 5, 5, 5, 5, 5, 5, 5, 5, 5, 5, 5, 5, 5, 5, 5, 5, 5, 5, 5, 5, 5, 5, 5, 5, 5],
                 "height":33,
                 "id":4,
                 "name":"Wasserbasis",
                 "opacity":1,
                 "type":"tilelayer",
                 "visible":true,
                 "width":30,
                 "x":0,
                 "y":0
                }, 
                {
                 "data":[0, 0, 0, 0, 0, 0, 0, 0, 0, 0, 0, 0, 0, 0, 0, 0, 0, 0, 0, 0, 0, 0, 0, 0, 0, 0, 0, 0, 0, 0, 0, 0, 0, 0, 0, 0, 0, 0, 0, 0, 0, 0, 0, 0, 0, 0, 0, 0, 0, 0, 0, 0, 0, 0, 0, 0, 0, 0, 0, 0, 0, 0, 0, 0, 0, 0, 0, 0, 0, 0, 0, 0, 0, 0, 0, 0, 0, 0, 0, 0, 0, 0, 0, 0, 0, 0, 0, 0, 0, 0, 0, 0, 0, 0, 0, 0, 0, 0, 0, 0, 0, 0, 0, 0, 0, 0, 0, 0, 0, 0, 0, 0, 0, 0, 0, 0, 0, 0, 0, 0, 0, 0, 0, 0, 0, 0, 0, 0, 0, 0, 0, 0, 0, 0, 0, 0, 0, 0, 0, 0, 0, 0, 0, 0, 0, 0, 0, 0, 0, 0, 481, 482, 483, 484, 485, 486, 487, 488, 489, 490, 491, 492, 493, 494, 495, 496, 497, 498, 499, 500, 501, 502, 503, 504, 505, 506, 507, 508, 509, 510, 541, 542, 543, 544, 545, 546, 547, 548, 549, 550, 551, 552, 553, 554, 555, 556, 557, 558, 559, 560, 561, 562, 563, 564, 565, 566, 567, 568, 569, 570, 601, 602, 603, 604, 605, 606, 607, 608, 609, 610, 611, 612, 613, 614, 615, 616, 617, 618, 619, 620, 621, 622, 623, 624, 625, 626, 627, 628, 629, 630, 661, 662, 663, 664, 665, 666, 667, 668, 669, 670, 671, 672, 673, 674, 675, 676, 677, 678, 679, 680, 681, 682, 683, 684, 685, 686, 687, 688, 689, 690, 721, 722, 723, 724, 725, 726, 727, 728, 729, 730, 731, 732, 733, 734, 735, 736, 737, 738, 739, 740, 741, 742, 743, 744, 745, 746, 747, 748, 749, 750, 781, 782, 783, 784, 785, 786, 787, 788, 789, 790, 791, 792, 793, 794, 795, 796, 797, 798, 799, 800, 801, 802, 803, 804, 805, 806, 807, 808, 809, 810, 841, 842, 843, 844, 845, 846, 847, 848, 849, 850, 851, 852, 853, 854, 855, 856, 857, 858, 859, 860, 861, 862, 863, 864, 865, 866, 867, 868, 869, 870, 901, 902, 903, 904, 905, 906, 907, 908, 909, 910, 911, 912, 913, 914, 915, 916, 917, 918, 919, 920, 921, 922, 923, 924, 925, 926, 927, 928, 929, 930, 961, 962, 963, 964, 965, 966, 967, 968, 969, 970, 971, 972, 973, 974, 975, 976, 977, 978, 979, 980, 981, 982, 983, 984, 985, 986, 987, 988, 989, 990, 1021, 1022, 1023, 1024, 1025, 1026, 1027, 1028, 1029, 1030, 1031, 1032, 1033, 1034, 1035, 1036, 1037, 1038, 1039, 1040, 1041, 1042, 1043, 1044, 1045, 1046, 1047, 1048, 1049, 1050, 1081, 1082, 1083, 1084, 1085, 1086, 1087, 1088, 1089, 1090, 1091, 1092, 1093, 1094, 1095, 1096, 1097, 1098, 1099, 1100, 1101, 1102, 1103, 1104, 1105, 1106, 1107, 1108, 1109, 1110, 1073742905, 1073742906, 1073742907, 1073742908, 1073742909, 1073742910, 1073742911, 1073742912, 1073742913, 1073742914, 1073742915, 1073742916, 1073742917, 1073742918, 1073742919, 1073742920, 1073742921, 1073742922, 1073742923, 1073742924, 1073742925, 1073742926, 1073742927, 1073742928, 1073742929, 1073742930, 1073742931, 1073742932, 1073742933, 1073742934, 1073742845, 1073742846, 1073742847, 1073742848, 1073742849, 1073742850, 1073742851, 1073742852, 1073742853, 1073742854, 1073742855, 1073742856, 1073742857, 1073742858, 1073742859, 1073742860, 1073742861, 1073742862, 1073742863, 1073742864, 1073742865, 1073742866, 1073742867, 1073742868, 1073742869, 1073742870, 1073742871, 1073742872, 1073742873, 1073742874, 1073742785, 1073742786, 1073742787, 1073742788, 1073742789, 1073742790, 1073742791, 1073742792, 1073742793, 1073742794, 1073742795, 1073742796, 1073742797, 1073742798, 1073742799, 1073742800, 1073742801, 1073742802, 1073742803, 1073742804, 1073742805, 1073742806, 1073742807, 1073742808, 1073742809, 1073742810, 1073742811, 1073742812, 1073742813, 1073742814, 1073742905, 1073742906, 1073742907, 1073742908, 1073742909, 1073742910, 1073742911, 1073742912, 1073742913, 1073742914, 1073742915, 1073742916, 1073742917, 1073742918, 1073742919, 1073742920, 1073742921, 1073742922, 1073742923, 1073742924, 1073742925, 1073742926, 1073742927, 1073742928, 1073742929, 1073742930, 1073742931, 1073742932, 1073742933, 1073742934, 1073742845, 1073742846, 1073742847, 1073742848, 1073742849, 1073742850, 1073742851, 1073742852, 1073742853, 1073742854, 1073742855, 1073742856, 1073742857, 1073742858, 1073742859, 1073742860, 1073742861, 1073742862, 1073742863, 1073742864, 1073742865, 1073742866, 1073742867, 1073742868, 1073742869, 1073742870, 1073742871, 1073742872, 1073742873, 1073742874, 1073742785, 1073742786, 1073742787, 1073742788, 1073742789, 1073742790, 1073742791, 1073742792, 1073742793, 1073742794, 1073742795, 1073742796, 1073742797, 1073742798, 1073742799, 1073742800, 1073742801, 1073742802, 1073742803, 1073742804, 1073742805, 1073742806, 1073742807, 1073742808, 1073742809, 1073742810, 1073742811, 1073742812, 1073742813, 1073742814, 1073742905, 1073742906, 1073742907, 1073742908, 1073742909, 1073742910, 1073742911, 1073742912, 1073742913, 1073742914, 1073742915, 1073742916, 1073742917, 1073742918, 1073742919, 1073742920, 1073742921, 1073742922, 1073742923, 1073742924, 1073742925, 1073742926, 1073742927, 1073742928, 1073742929, 1073742930, 1073742931, 1073742932, 1073742933, 1073742934, 1073742845, 1073742846, 1073742847, 1073742848, 1073742849, 1073742850, 1073742851, 1073742852, 1073742853, 1073742854, 1073742855, 1073742856, 1073742857, 1073742858, 1073742859, 1073742860, 1073742861, 1073742862, 1073742863, 1073742864, 1073742865, 1073742866, 1073742867, 1073742868, 1073742869, 1073742870, 1073742871, 1073742872, 1073742873, 1073742874, 1073742785, 1073742786, 1073742787, 1073742788, 1073742789, 1073742790, 1073742791, 1073742792, 1073742793, 1073742794, 1073742795, 1073742796, 1073742797, 1073742798, 1073742799, 1073742800, 1073742801, 1073742802, 1073742803, 1073742804, 1073742805, 1073742806, 1073742807, 1073742808, 1073742809, 1073742810, 1073742811, 1073742812, 1073742813, 1073742814, 1073742725, 1073742726, 1073742727, 1073742728, 1073742729, 1073742730, 1073742731, 1073742732, 1073742733, 1073742734, 1073742735, 1073742736, 1073742737, 1073742738, 1073742739, 1073742740, 1073742741, 1073742742, 1073742743, 1073742744, 1073742745, 1073742746, 1073742747, 1073742748, 1073742749, 1073742750, 1073742751, 1073742752, 1073742753, 1073742754, 1073742665, 1073742666, 1073742667, 1073742668, 1073742669, 1073742670, 1073742671, 1073742672, 1073742673, 1073742674, 1073742675, 1073742676, 1073742677, 1073742678, 1073742679, 1073742680, 1073742681, 1073742682, 1073742683, 1073742684, 1073742685, 1073742686, 1073742687, 1073742688, 1073742689, 1073742690, 1073742691, 1073742692, 1073742693, 1073742694, 1073742605, 1073742606, 1073742607, 1073742608, 1073742609, 1073742610, 1073742611, 1073742612, 1073742613, 1073742614, 1073742615, 1073742616, 1073742617, 1073742618, 1073742619, 1073742620, 1073742621, 1073742622, 1073742623, 1073742624, 1073742625, 1073742626, 1073742627, 1073742628, 1073742629, 1073742630, 1073742631, 1073742632, 1073742633, 1073742634, 1073742545, 1073742546, 1073742547, 1073742548, 1073742549, 1073742550, 1073742551, 1073742552, 1073742553, 1073742554, 1073742555, 1073742556, 1073742557, 1073742558, 1073742559, 1073742560, 1073742561, 1073742562, 1073742563, 1073742564, 1073742565, 1073742566, 1073742567, 1073742568, 1073742569, 1073742570, 1073742571, 1073742572, 1073742573, 1073742574, 1073742485, 1073742486, 1073742487, 1073742488, 1073742489, 1073742490, 1073742491, 1073742492, 1073742493, 1073742494, 1073742495, 1073742496, 1073742497, 1073742498, 1073742499, 1073742500, 1073742501, 1073742502, 1073742503, 1073742504, 1073742505, 1073742506, 1073742507, 1073742508, 1073742509, 1073742510, 1073742511, 1073742512, 1073742513, 1073742514, 1073742425, 1073742426, 1073742427, 1073742428, 1073742429, 1073742430, 1073742431, 1073742432, 1073742433, 1073742434, 1073742435, 1073742436, 1073742437, 1073742438, 1073742439, 1073742440, 1073742441, 1073742442, 1073742443, 1073742444, 1073742445, 1073742446, 1073742447, 1073742448, 1073742449, 1073742450, 1073742451, 1073742452, 1073742453, 1073742454, 1073742365, 1073742366, 1073742367, 1073742368, 1073742369, 1073742370, 1073742371, 1073742372, 1073742373, 1073742374, 1073742375, 1073742376, 1073742377, 1073742378, 1073742379, 1073742380, 1073742381, 1073742382, 1073742383, 1073742384, 1073742385, 1073742386, 1073742387, 1073742388, 1073742389, 1073742390, 1073742391, 1073742392, 1073742393, 1073742394, 1073742305, 1073742306, 1073742307, 1073742308, 1073742309, 1073742310, 1073742311, 1073742312, 1073742313, 1073742314, 1073742315, 1073742316, 1073742317, 1073742318, 1073742319, 1073742320, 1073742321, 1073742322, 1073742323, 1073742324, 1073742325, 1073742326, 1073742327, 1073742328, 1073742329, 1073742330, 1073742331, 1073742332, 1073742333, 1073742334],
                 "height":33,
                 "id":6,
                 "name":"Wasserreflektion",
                 "opacity":1,
                 "type":"tilelayer",
                 "visible":true,
                 "width":30,
                 "x":0,
                 "y":0
                }],
         "name":"Wasser",
         "opacity":1,
         "type":"group",
         "visible":true,
         "x":0,
         "y":0
        }, 
        {
         "id":11,
         "layers":[
                {
                 "data":[0, 0, 0, 0, 0, 0, 0, 0, 0, 0, 0, 0, 0, 0, 0, 0, 0, 0, 0, 0, 0, 0, 0, 0, 0, 0, 0, 0, 0, 0, 0, 0, 0, 0, 0, 0, 0, 0, 0, 0, 0, 0, 0, 0, 0, 0, 0, 0, 0, 0, 0, 0, 0, 0, 0, 0, 0, 0, 0, 0, 0, 0, 0, 0, 0, 0, 0, 0, 0, 0, 0, 0, 0, 0, 0, 0, 0, 0, 0, 0, 0, 0, 0, 0, 0, 0, 0, 0, 0, 0, 0, 0, 0, 0, 0, 0, 0, 0, 0, 0, 0, 0, 0, 0, 0, 0, 0, 0, 0, 0, 0, 0, 0, 0, 0, 0, 0, 0, 0, 0, 0, 0, 0, 0, 0, 0, 0, 0, 0, 0, 0, 0, 0, 0, 0, 0, 0, 0, 0, 0, 0, 0, 0, 0, 0, 0, 0, 0, 0, 0, 0, 0, 0, 0, 0, 0, 0, 0, 0, 0, 0, 0, 0, 0, 0, 0, 0, 0, 0, 0, 0, 0, 0, 0, 0, 0, 0, 0, 0, 0, 0, 0, 0, 0, 0, 0, 0, 0, 0, 0, 0, 0, 0, 0, 0, 0, 0, 0, 0, 0, 0, 0, 0, 0, 0, 0, 0, 0, 0, 0, 0, 0, 0, 0, 0, 0, 0, 0, 0, 0, 0, 0, 0, 0, 0, 0, 0, 0, 0, 0, 0, 0, 0, 0, 0, 0, 0, 0, 0, 0, 0, 0, 0, 0, 0, 0, 0, 0, 0, 0, 0, 0, 0, 0, 0, 0, 0, 0, 0, 0, 0, 0, 0, 0, 0, 0, 0, 0, 0, 0, 0, 0, 0, 0, 0, 1073748506, 1073748507, 1073748508, 1073748509, 1073748510, 1073748511, 3758102835, 3758102835, 3758102835, 3758102835, 3758102835, 3758102835, 3758102835, 3758102835, 3758102835, 1610619187, 1610619247, 1610619307, 1610619367, 1610619427, 0, 0, 0, 0, 0, 0, 0, 0, 0, 0, 1073748446, 1073748447, 1073748448, 1073748449, 1073748450, 1073748451, 3758102834, 3758102834, 3758102834, 3758102834, 3758102834, 3758102834, 3758102834, 3758102834, 3758102834, 1610619186, 1610619246, 1610619306, 1610619366, 1610619426, 0, 0, 0, 0, 0, 0, 0, 0, 0, 0, 1073748386, 1073748387, 1073748388, 1073748389, 1073748390, 1073748391, 3758102833, 3758102833, 3758102833, 3758102833, 3758102833, 3758102833, 3758102833, 3758102833, 3758102833, 1610619185, 1610619245, 1610619305, 1610619365, 1610619425, 0, 0, 0, 0, 0, 0, 0, 0, 0, 0, 1073748326, 1073748327, 1073748328, 1073748329, 5796, 5796, 5796, 5796, 5796, 5796, 5796, 5796, 5796, 5796, 5796, 5796, 1610619244, 1610619304, 1610619364, 1610619424, 0, 0, 0, 0, 0, 0, 0, 0, 0, 0, 1073748266, 1073748267, 1073748268, 5796, 5796, 5796, 5796, 5796, 5796, 5796, 5796, 5796, 5796, 5796, 5796, 5796, 5796, 6449, 6450, 6451, 0, 0, 0, 0, 0, 0, 0, 0, 0, 0, 1073748266, 1073748267, 6384, 5796, 5796, 5796, 5796, 5796, 5796, 5796, 5796, 5796, 5796, 5796, 5796, 5796, 5796, 6449, 6450, 6451, 0, 0, 0, 0, 0, 0, 0, 0, 0, 0, 1073748266, 1073748267, 6444, 5796, 5796, 5796, 5796, 5796, 5796, 5796, 5796, 5796, 5796, 5796, 5796, 5796, 5796, 6449, 6450, 6451, 0, 0, 0, 0, 0, 0, 0, 0, 0, 0, 1073748266, 1073748267, 6384, 5796, 5796, 5796, 5796, 5796, 5796, 5796, 5796, 5796, 5796, 5796, 5796, 5796, 5796, 6449, 6450, 6451, 0, 0, 0, 0, 0, 0, 0, 0, 0, 0, 6442, 6443, 6444, 5796, 5796, 5796, 5796, 5796, 5796, 5796, 5796, 5796, 5796, 5796, 5796, 5796, 5796, 6449, 6450, 6451, 0, 0, 0, 0, 0, 0, 0, 0, 0, 0, 6442, 6443, 6384, 5796, 5796, 5796, 5796, 5796, 5796, 5796, 5796, 5796, 5796, 5796, 5796, 5796, 5796, 6449, 6450, 6451, 0, 0, 0, 0, 0, 0, 0, 0, 0, 0, 6442, 6443, 6444, 5796, 5796, 5796, 5796, 5796, 5796, 5796, 5796, 5796, 5796, 5796, 5796, 5796, 5796, 6449, 6450, 6451, 0, 0, 0, 0, 0, 0, 0, 0, 0, 0, 6442, 6443, 6384, 5796, 5796, 5796, 5796, 5796, 5796, 5796, 5796, 5796, 5796, 5796, 5796, 5796, 5796, 6449, 6450, 6451, 0, 0, 0, 0, 0, 0, 0, 0, 0, 0, 6442, 6443, 6444, 5796, 5796, 5796, 5796, 5796, 5796, 5796, 5796, 5796, 5796, 5796, 5796, 5796, 5796, 6449, 6450, 6451, 0, 0, 0, 0, 0, 0, 0, 0, 0, 0, 6442, 6443, 6384, 5796, 5796, 5796, 5796, 5796, 5796, 5796, 5796, 5796, 5796, 5796, 5796, 5796, 5796, 6449, 6450, 6451, 0, 0, 0, 0, 0, 0, 0, 0, 0, 0, 6442, 6443, 6444, 5796, 5796, 5796, 5796, 5796, 5796, 5796, 5796, 5796, 5796, 5796, 5796, 5796, 5796, 6449, 6450, 6451, 0, 0, 0, 0, 0, 0, 0, 0, 0, 0, 6442, 6443, 6444, 5796, 5796, 5796, 5796, 5796, 5796, 5796, 5796, 5796, 5796, 5796, 5796, 5796, 5796, 6449, 6450, 6451, 0, 0, 0, 0, 0, 0, 0, 0, 0, 0, 6502, 6503, 6504, 6505, 5796, 5796, 5796, 5796, 5796, 5796, 5796, 5796, 5796, 5796, 5796, 5796, 6508, 6509, 6510, 6511, 0, 0, 0, 0, 0, 0, 0, 0, 0, 0, 6562, 6563, 6564, 6565, 6566, 6567, 2684361009, 2684361009, 2684361009, 2684361009, 2684361009, 2684361009, 2684361009, 2684361009, 2684361009, 2684361009, 6568, 6569, 6570, 6571, 0, 0, 0, 0, 0, 0, 0, 0, 0, 0, 6622, 6623, 6624, 6625, 6626, 6627, 2684361010, 2684361010, 2684361010, 2684361010, 2684361010, 2684361010, 2684361010, 2684361010, 2684361010, 2684361010, 6628, 6629, 6630, 6631, 0, 0, 0, 0, 0, 0, 0, 0, 0, 0, 6682, 6683, 6684, 6685, 6686, 6687, 2684361011, 2684361011, 2684361011, 2684361011, 2684361011, 2684361011, 2684361011, 2684361011, 2684361011, 2684361011, 6688, 6689, 6690, 6691, 0, 0, 0, 0, 0, 0, 0, 0, 0, 0, 0, 0, 0, 0, 0, 0, 0, 0, 0, 0, 0, 0, 0, 0, 0, 0, 0, 0, 0, 0, 0, 0, 0, 0, 0, 0, 0, 0, 0, 0, 0, 0, 0, 0, 0, 0, 0, 0, 0, 0, 0, 0, 0, 0, 0, 0, 0, 0, 0, 0, 0, 0, 0, 0, 0, 0, 0, 0, 0, 0, 0, 0, 0, 0, 0, 0, 0, 0, 0, 0, 0, 0, 0, 0, 0, 0, 0, 0, 0, 0, 0, 0, 0, 0, 0, 0, 0, 0, 0, 0, 0, 0, 0, 0, 0, 0, 0, 0, 0, 0, 0, 0, 0, 0, 0, 0, 0, 0, 0, 0, 0, 0, 0, 0, 0],
                 "height":33,
                 "id":1,
                 "name":"Inselbasis",
                 "opacity":1,
                 "type":"tilelayer",
                 "visible":true,
                 "width":30,
                 "x":0,
                 "y":0
                }, 
                {
                 "data":[0, 0, 0, 0, 0, 0, 0, 0, 0, 0, 0, 0, 0, 0, 0, 0, 0, 0, 0, 0, 0, 0, 0, 0, 0, 0, 0, 0, 0, 0, 0, 0, 0, 0, 0, 0, 0, 0, 0, 0, 0, 0, 0, 0, 0, 0, 0, 0, 0, 0, 0, 0, 0, 0, 0, 0, 0, 0, 0, 0, 0, 0, 0, 0, 0, 0, 0, 0, 0, 0, 0, 0, 0, 0, 0, 0, 0, 0, 0, 0, 0, 0, 0, 0, 0, 0, 0, 0, 0, 0, 0, 0, 0, 0, 0, 0, 0, 0, 0, 0, 0, 0, 0, 0, 0, 0, 0, 0, 0, 0, 0, 0, 0, 0, 0, 0, 0, 0, 0, 0, 0, 0, 0, 0, 0, 0, 0, 0, 0, 0, 0, 0, 0, 0, 0, 0, 0, 0, 0, 0, 0, 0, 0, 0, 0, 0, 0, 0, 0, 0, 0, 0, 0, 0, 0, 0, 0, 0, 0, 0, 0, 0, 0, 0, 0, 0, 0, 0, 0, 0, 0, 0, 0, 0, 0, 0, 0, 0, 0, 0, 0, 0, 0, 0, 0, 0, 0, 0, 0, 0, 7351, 0, 0, 7354, 7355, 0, 0, 0, 0, 0, 0, 0, 0, 0, 0, 0, 0, 0, 0, 0, 0, 0, 0, 0, 0, 0, 0, 0, 0, 0, 0, 0, 0, 0, 0, 0, 0, 0, 0, 0, 0, 0, 0, 0, 0, 0, 0, 0, 0, 0, 0, 0, 0, 0, 0, 0, 0, 0, 0, 0, 0, 0, 0, 0, 0, 0, 0, 0, 0, 0, 0, 0, 0, 0, 0, 0, 0, 0, 0, 0, 0, 0, 0, 0, 0, 0, 0, 0, 0, 0, 0, 0, 0, 0, 0, 0, 0, 0, 0, 0, 0, 0, 0, 0, 0, 0, 0, 0, 0, 0, 0, 0, 0, 0, 0, 0, 0, 0, 0, 0, 0, 0, 0, 0, 0, 0, 0, 0, 3610, 0, 0, 0, 0, 0, 0, 0, 0, 0, 0, 0, 0, 0, 0, 0, 0, 0, 0, 0, 0, 0, 0, 0, 0, 0, 0, 0, 0, 0, 0, 0, 0, 0, 0, 0, 0, 0, 0, 0, 0, 0, 0, 0, 0, 0, 0, 0, 0, 0, 0, 0, 0, 0, 0, 0, 0, 0, 0, 0, 0, 0, 0, 0, 0, 0, 0, 0, 0, 0, 0, 0, 0, 0, 0, 0, 0, 0, 0, 0, 0, 0, 0, 0, 0, 0, 0, 0, 3730, 0, 3978, 3979, 0, 0, 0, 0, 0, 0, 0, 0, 0, 0, 0, 0, 0, 0, 0, 0, 0, 0, 0, 3671, 0, 3758100408, 3842, 3842, 4027, 2684358533, 2684358473, 0, 4038, 4039, 0, 0, 0, 3671, 0, 0, 0, 0, 0, 0, 0, 0, 0, 0, 0, 0, 0, 0, 0, 0, 0, 3901, 3902, 3903, 3902, 3903, 4026, 3843, 3859, 0, 0, 0, 0, 2147487319, 0, 0, 0, 0, 0, 0, 0, 0, 0, 0, 0, 0, 0, 0, 0, 0, 0, 1073745793, 3962, 3962, 3962, 3963, 3902, 3903, 3904, 3758100054, 0, 0, 0, 0, 0, 0, 0, 0, 0, 0, 0, 0, 0, 0, 0, 0, 0, 0, 0, 0, 0, 1610616579, 3962, 3963, 3962, 3963, 3962, 3963, 4034, 3844, 0, 0, 0, 0, 0, 0, 0, 0, 0, 0, 0, 0, 0, 0, 0, 0, 0, 0, 0, 0, 3730, 536874939, 3903, 3963, 3902, 3903, 3962, 3963, 3903, 3904, 0, 0, 0, 0, 0, 0, 0, 0, 0, 0, 0, 0, 0, 0, 0, 0, 0, 0, 0, 0, 0, 3973, 3962, 3962, 3962, 3963, 3962, 3902, 3903, 3964, 0, 0, 0, 0, 0, 0, 0, 0, 0, 0, 0, 0, 0, 0, 0, 0, 0, 0, 0, 3980, 3981, 4038, 2147487619, 2147487611, 3962, 3963, 3962, 3963, 3221229501, 4024, 0, 0, 0, 0, 0, 0, 0, 0, 0, 0, 0, 0, 0, 0, 0, 0, 0, 0, 0, 4040, 4041, 4042, 2147487672, 2147487671, 4022, 4023, 4022, 4023, 4024, 0, 3858, 3859, 0, 0, 0, 0, 0, 0, 0, 0, 0, 0, 0, 0, 0, 0, 0, 0, 0, 0, 0, 0, 0, 0, 0, 0, 0, 3729, 0, 0, 3918, 3919, 0, 0, 0, 0, 0, 0, 0, 0, 0, 0, 0, 0, 0, 0, 0, 0, 7361, 7362, 7363, 0, 0, 0, 0, 0, 0, 0, 0, 0, 4872, 4873, 3608, 3609, 0, 0, 0, 0, 0, 0, 0, 0, 0, 0, 0, 0, 0, 0, 7391, 7392, 7393, 0, 3921, 3922, 0, 0, 0, 0, 0, 2147487574, 4932, 4933, 3668, 3669, 0, 0, 0, 0, 0, 0, 0, 0, 0, 0, 0, 0, 0, 0, 0, 0, 3221229143, 0, 0, 0, 0, 0, 0, 0, 0, 0, 4992, 4993, 0, 0, 0, 0, 0, 0, 0, 0, 0, 0, 0, 0, 0, 0, 0, 0, 0, 0, 0, 0, 0, 0, 0, 0, 0, 0, 0, 0, 0, 0, 0, 0, 0, 0, 0, 0, 0, 0, 0, 0, 0, 0, 0, 0, 0, 0, 0, 0, 0, 0, 0, 0, 0, 0, 0, 3731, 3732, 0, 0, 0, 0, 0, 0, 0, 0, 0, 0, 0, 0, 0, 0, 0, 0, 0, 0, 0, 0, 0, 0, 0, 0, 0, 0, 0, 0, 0, 0, 0, 0, 0, 0, 0, 0, 0, 0, 0, 0, 0, 0, 0, 0, 0, 0, 0, 0, 0, 0, 0, 0, 0, 0, 0, 0, 0, 0, 0, 0, 0, 0, 0, 0, 0, 0, 0, 0, 0, 0, 0, 0, 0, 0, 0, 0, 0, 0, 0, 0, 0, 0, 0, 0, 0, 0, 0, 0, 0, 0, 0, 0, 0, 0, 0, 0, 0, 0, 0, 0, 0, 0, 0, 0, 0, 0, 0, 0, 0, 0, 0, 0, 0, 0, 0, 0, 0, 0, 0, 0, 0, 0, 0, 0, 0, 0, 0, 0, 0, 0, 0, 0, 0, 0, 0, 0, 0, 0, 0, 0, 0, 0, 0, 0, 0, 0, 0, 0, 0, 0, 0, 0, 0, 0, 0, 0, 0, 0, 0, 0, 0],
                 "height":33,
                 "id":2,
                 "name":"Deko Ebene 1",
                 "opacity":1,
                 "type":"tilelayer",
                 "visible":true,
                 "width":30,
                 "x":0,
                 "y":0
                }, 
                {
                 "data":[0, 0, 0, 0, 0, 0, 0, 0, 0, 0, 0, 0, 0, 0, 0, 0, 0, 0, 0, 0, 0, 0, 0, 0, 0, 0, 0, 0, 0, 0, 0, 0, 0, 0, 0, 0, 0, 0, 0, 0, 0, 0, 0, 0, 0, 0, 0, 0, 0, 0, 0, 0, 0, 0, 0, 0, 0, 0, 0, 0, 0, 0, 0, 0, 0, 0, 0, 0, 0, 0, 0, 0, 0, 0, 0, 0, 0, 0, 0, 0, 0, 0, 0, 0, 0, 0, 0, 0, 0, 0, 0, 0, 0, 0, 0, 0, 0, 0, 0, 0, 0, 0, 0, 0, 0, 0, 0, 0, 0, 0, 0, 0, 0, 0, 0, 0, 0, 0, 0, 0, 0, 0, 0, 0, 0, 0, 0, 0, 0, 0, 0, 0, 0, 0, 0, 0, 0, 0, 0, 0, 0, 0, 0, 0, 0, 0, 0, 0, 0, 0, 0, 0, 0, 0, 0, 0, 0, 0, 0, 0, 0, 0, 0, 0, 0, 0, 0, 0, 0, 0, 0, 0, 0, 0, 0, 0, 0, 0, 0, 0, 0, 0, 0, 0, 0, 0, 0, 0, 0, 0, 0, 0, 0, 0, 0, 0, 0, 0, 0, 0, 0, 0, 0, 0, 0, 0, 0, 0, 0, 0, 0, 0, 0, 0, 0, 0, 0, 0, 0, 0, 0, 0, 0, 0, 0, 0, 0, 0, 0, 0, 0, 0, 0, 0, 0, 0, 0, 0, 0, 0, 0, 0, 0, 0, 0, 0, 0, 0, 0, 0, 0, 0, 0, 0, 0, 0, 0, 0, 0, 0, 0, 0, 0, 0, 0, 0, 0, 0, 0, 0, 0, 0, 0, 0, 0, 0, 0, 0, 0, 0, 0, 0, 0, 0, 0, 0, 0, 0, 0, 0, 0, 0, 0, 0, 0, 0, 0, 0, 0, 0, 0, 0, 0, 0, 0, 0, 0, 0, 0, 0, 0, 0, 0, 0, 0, 0, 0, 0, 0, 0, 0, 0, 0, 0, 0, 0, 0, 0, 0, 0, 0, 0, 0, 0, 0, 0, 0, 0, 0, 0, 0, 0, 0, 0, 0, 0, 0, 0, 0, 0, 0, 0, 0, 0, 0, 0, 0, 0, 0, 0, 0, 0, 0, 0, 0, 0, 0, 0, 0, 0, 0, 0, 0, 0, 0, 0, 0, 0, 0, 0, 0, 0, 0, 0, 0, 0, 0, 0, 0, 0, 0, 0, 0, 0, 0, 0, 0, 0, 0, 0, 0, 0, 0, 0, 0, 0, 0, 0, 0, 0, 0, 0, 0, 0, 0, 0, 0, 0, 0, 0, 0, 0, 0, 0, 0, 0, 0, 0, 0, 0, 0, 0, 0, 0, 0, 0, 0, 0, 0, 0, 0, 0, 0, 0, 0, 0, 0, 0, 0, 0, 0, 0, 0, 0, 0, 0, 0, 0, 0, 0, 0, 0, 0, 0, 0, 0, 0, 0, 0, 0, 0, 0, 0, 0, 0, 0, 0, 0, 0, 0, 0, 0, 0, 0, 0, 0, 0, 0, 0, 0, 0, 0, 0, 0, 0, 0, 0, 0, 0, 0, 0, 0, 0, 0, 0, 0, 0, 0, 0, 0, 0, 0, 0, 0, 0, 0, 0, 0, 0, 0, 0, 0, 0, 0, 0, 0, 0, 9378, 9379, 0, 0, 0, 0, 0, 0, 0, 0, 0, 0, 0, 0, 0, 0, 0, 0, 0, 0, 0, 0, 0, 0, 0, 0, 0, 0, 0, 0, 0, 0, 0, 0, 0, 0, 0, 0, 0, 0, 0, 0, 0, 0, 0, 0, 0, 0, 0, 0, 0, 0, 0, 0, 0, 0, 0, 0, 0, 0, 0, 0, 0, 0, 0, 0, 0, 0, 0, 0, 0, 0, 0, 0, 0, 0, 0, 0, 0, 0, 0, 0, 0, 0, 0, 0, 0, 0, 0, 0, 0, 0, 8645, 0, 0, 0, 0, 0, 0, 0, 0, 0, 0, 0, 0, 0, 0, 0, 0, 0, 0, 0, 0, 0, 0, 0, 0, 0, 0, 0, 0, 0, 0, 0, 0, 0, 0, 0, 0, 0, 0, 0, 0, 0, 0, 0, 0, 0, 0, 0, 0, 0, 0, 0, 0, 0, 0, 0, 0, 0, 0, 0, 0, 0, 0, 0, 0, 0, 0, 0, 0, 0, 0, 0, 0, 0, 0, 0, 0, 0, 0, 8328, 0, 0, 0, 0, 0, 0, 0, 0, 0, 0, 0, 0, 0, 0, 0, 0, 0, 0, 0, 0, 0, 0, 0, 0, 0, 0, 0, 0, 0, 0, 0, 0, 0, 0, 0, 0, 0, 0, 0, 0, 0, 0, 0, 0, 0, 0, 0, 0, 0, 0, 0, 0, 0, 0, 0, 0, 0, 0, 0, 0, 0, 0, 0, 0, 0, 0, 0, 0, 0, 0, 0, 0, 0, 0, 0, 0, 0, 0, 0, 0, 0, 0, 0, 0, 0, 0, 0, 0, 0, 0, 0, 0, 0, 0, 0, 0, 0, 0, 0, 0, 0, 0, 0, 0, 0, 0, 0, 0, 0, 0, 0, 0, 0, 0, 0, 0, 0, 0, 0, 0, 0, 0, 0, 0, 0, 0, 0, 0, 0, 0, 0, 0, 0, 0, 0, 0, 0, 0, 0, 0, 0, 0, 0, 0, 0, 0, 0, 0, 0, 0, 0, 0, 0, 0, 0, 0, 0, 0, 0, 0, 0, 0, 0, 0, 0, 0, 0, 0, 0, 0, 0, 0, 0, 0, 0, 0, 0, 0, 0, 0, 0, 0, 0, 0, 0, 0, 0, 0, 0, 0, 0, 0, 0, 0, 0, 0, 0, 0, 0, 0, 0, 0, 0, 0, 0, 0, 0, 0, 0, 0, 0, 0, 0, 0, 0, 0, 0, 0, 0, 0, 0, 0, 0, 0, 0, 0, 0, 0, 0, 0, 0, 0, 0, 0, 0, 0, 0, 0, 0, 0, 0, 0, 0, 0, 0, 0, 0, 0, 0, 0, 0, 0, 0, 0, 0, 0, 0, 0, 0, 0, 0, 0, 0, 0, 0, 0, 0, 0, 0, 0, 0, 0, 0, 0, 0, 0, 0, 0, 0, 0, 0, 0, 0, 0, 0, 0, 0, 0, 0, 0, 0],
                 "height":33,
                 "id":16,
                 "name":"Deko Ebene 2",
                 "opacity":1,
                 "type":"tilelayer",
                 "visible":true,
                 "width":30,
                 "x":0,
                 "y":0
                }, 
                {
                 "data":[0, 0, 0, 0, 0, 0, 0, 0, 0, 0, 0, 0, 0, 0, 0, 0, 0, 0, 0, 0, 0, 0, 0, 0, 0, 0, 0, 0, 0, 0, 0, 0, 0, 0, 0, 0, 0, 0, 0, 0, 0, 0, 0, 0, 0, 0, 0, 0, 0, 0, 0, 0, 0, 0, 0, 0, 0, 0, 0, 0, 0, 0, 0, 0, 0, 0, 0, 0, 0, 0, 0, 0, 0, 0, 0, 0, 0, 0, 0, 0, 0, 0, 0, 0, 0, 0, 0, 0, 0, 0, 0, 0, 0, 0, 0, 0, 0, 0, 0, 0, 0, 0, 0, 0, 0, 0, 0, 0, 0, 0, 0, 0, 0, 0, 0, 0, 0, 0, 0, 0, 0, 0, 0, 0, 0, 0, 0, 0, 0, 0, 0, 0, 0, 0, 0, 0, 0, 0, 0, 0, 0, 0, 0, 0, 0, 0, 0, 0, 0, 0, 0, 0, 0, 0, 0, 0, 0, 0, 0, 0, 0, 0, 0, 0, 0, 0, 0, 0, 0, 0, 0, 0, 0, 0, 0, 0, 0, 0, 0, 0, 0, 0, 0, 0, 0, 0, 0, 0, 0, 0, 0, 0, 0, 0, 0, 0, 0, 0, 0, 0, 0, 0, 0, 0, 0, 0, 0, 0, 0, 0, 0, 0, 0, 0, 0, 0, 0, 0, 0, 0, 0, 0, 0, 0, 0, 0, 0, 0, 0, 0, 0, 0, 0, 0, 0, 0, 0, 0, 0, 0, 0, 0, 0, 0, 0, 0, 0, 0, 0, 0, 0, 0, 0, 0, 0, 0, 0, 0, 0, 0, 0, 0, 0, 0, 0, 0, 0, 0, 0, 0, 0, 0, 0, 0, 0, 0, 0, 0, 0, 0, 0, 0, 0, 0, 0, 0, 0, 0, 0, 0, 0, 0, 0, 0, 0, 0, 0, 0, 0, 0, 0, 0, 0, 0, 0, 0, 0, 0, 0, 0, 0, 0, 0, 0, 0, 0, 0, 0, 0, 0, 0, 0, 0, 0, 0, 0, 0, 0, 0, 0, 0, 0, 0, 0, 0, 0, 0, 0, 0, 0, 0, 0, 0, 0, 0, 0, 0, 0, 0, 0, 0, 0, 0, 0, 0, 0, 0, 0, 0, 0, 0, 0, 0, 0, 0, 0, 0, 0, 0, 0, 0, 0, 0, 0, 0, 0, 0, 0, 0, 0, 0, 0, 0, 0, 0, 0, 0, 0, 0, 0, 0, 0, 0, 0, 0, 0, 0, 0, 0, 0, 0, 0, 0, 0, 0, 0, 0, 0, 0, 0, 0, 0, 0, 0, 0, 0, 0, 0, 0, 0, 0, 0, 0, 0, 0, 0, 0, 0, 0, 0, 0, 0, 0, 0, 0, 0, 0, 0, 0, 0, 0, 0, 0, 0, 0, 0, 0, 0, 0, 0, 0, 0, 0, 0, 0, 0, 0, 0, 0, 0, 0, 0, 0, 0, 0, 0, 0, 0, 0, 0, 0, 0, 0, 0, 0, 0, 0, 0, 0, 0, 0, 0, 0, 0, 0, 0, 0, 0, 0, 0, 0, 0, 0, 0, 0, 0, 0, 0, 0, 0, 0, 0, 0, 0, 0, 0, 0, 0, 0, 0, 0, 0, 0, 0, 0, 0, 0, 0, 0, 0, 0, 0, 0, 0, 0, 0, 0, 3842, 3842, 0, 0, 0, 0, 0, 0, 0, 0, 0, 0, 0, 0, 0, 0, 0, 0, 0, 0, 0, 0, 0, 0, 0, 0, 0, 0, 0, 0, 0, 0, 0, 0, 0, 0, 0, 0, 0, 0, 0, 0, 0, 0, 0, 0, 0, 0, 0, 0, 0, 0, 0, 0, 0, 0, 0, 0, 0, 0, 0, 0, 0, 0, 0, 0, 0, 0, 0, 0, 0, 0, 0, 0, 0, 0, 0, 0, 0, 0, 0, 0, 0, 0, 0, 0, 0, 0, 0, 0, 0, 0, 0, 0, 0, 0, 0, 0, 0, 0, 0, 0, 0, 0, 0, 0, 0, 0, 0, 0, 0, 0, 0, 0, 0, 0, 0, 0, 0, 0, 0, 0, 0, 0, 0, 0, 0, 0, 0, 0, 0, 0, 0, 0, 0, 0, 0, 0, 0, 0, 0, 0, 0, 0, 0, 0, 0, 0, 0, 0, 0, 0, 0, 0, 0, 0, 0, 0, 0, 0, 0, 0, 0, 0, 0, 0, 0, 0, 0, 0, 0, 0, 0, 0, 0, 0, 0, 0, 0, 0, 0, 0, 0, 0, 0, 0, 0, 0, 0, 0, 0, 0, 0, 0, 0, 0, 0, 0, 0, 0, 0, 0, 0, 0, 0, 0, 0, 0, 0, 0, 0, 0, 0, 0, 0, 0, 0, 0, 0, 0, 0, 0, 0, 0, 0, 0, 0, 0, 0, 0, 0, 0, 0, 0, 0, 0, 0, 0, 0, 0, 0, 0, 0, 0, 0, 0, 0, 0, 0, 0, 0, 0, 0, 0, 0, 0, 0, 0, 0, 0, 0, 0, 0, 0, 0, 0, 0, 0, 0, 0, 0, 0, 0, 0, 0, 0, 0, 0, 0, 0, 0, 0, 0, 0, 0, 0, 0, 0, 0, 0, 0, 0, 0, 0, 0, 0, 0, 0, 0, 0, 0, 0, 0, 0, 0, 0, 0, 0, 0, 0, 0, 0, 0, 0, 0, 0, 0, 0, 0, 0, 0, 0, 0, 0, 0, 0, 0, 0, 0, 0, 0, 0, 0, 0, 0, 0, 0, 0, 0, 0, 0, 0, 0, 0, 0, 0, 0, 0, 0, 0, 0, 0, 0, 0, 0, 0, 0, 0, 0, 0, 0, 0, 0, 0, 0, 0, 0, 0, 0, 0, 0, 0, 0, 0, 0, 0, 0, 0, 0, 0, 0, 0, 0, 0, 0, 0, 0, 0, 0, 0, 0, 0, 0, 0, 0, 0, 0, 0, 0, 0, 0, 0, 0, 0, 0, 0, 0, 0, 0, 0, 0, 0, 0, 0, 0, 0, 0, 0, 0, 0, 0, 0, 0, 0, 0, 0, 0, 0, 0, 0, 0, 0, 0, 0, 0, 0, 0, 0, 0, 0, 0, 0, 0, 0, 0, 0, 0, 0, 0, 0, 0, 0, 0, 0, 0, 0, 0, 0, 0, 0, 0, 0, 0],
                 "height":33,
                 "id":17,
                 "name":"Deko Ebene 3",
                 "opacity":1,
                 "type":"tilelayer",
                 "visible":true,
                 "width":30,
                 "x":0,
                 "y":0
                }],
         "name":"Insel",
         "opacity":1,
         "type":"group",
         "visible":true,
         "x":0,
         "y":0
        }, 
        {
         "draworder":"topdown",
         "id":9,
         "name":"floorLayer",
         "objects":[],
         "offsetx":-7,
         "offsety":-34,
         "opacity":1,
         "type":"objectgroup",
         "visible":true,
         "x":0,
         "y":0
        }, 
        {
         "data":[0, 0, 0, 0, 0, 0, 0, 0, 0, 0, 0, 0, 0, 0, 0, 0, 0, 0, 0, 0, 0, 0, 0, 0, 0, 0, 0, 0, 0, 0, 0, 0, 0, 0, 0, 0, 0, 0, 0, 0, 0, 0, 0, 0, 0, 0, 0, 0, 0, 0, 0, 0, 0, 0, 0, 0, 0, 0, 0, 0, 0, 0, 0, 0, 0, 0, 0, 0, 0, 0, 0, 0, 0, 0, 0, 0, 0, 0, 0, 0, 0, 0, 0, 0, 0, 0, 0, 0, 0, 0, 0, 0, 0, 0, 0, 0, 0, 0, 0, 0, 0, 0, 0, 0, 0, 0, 0, 0, 0, 0, 0, 0, 0, 0, 0, 0, 0, 0, 0, 0, 0, 0, 0, 0, 0, 0, 0, 0, 0, 0, 0, 0, 0, 0, 0, 0, 0, 0, 0, 0, 0, 0, 0, 0, 0, 0, 0, 0, 0, 0, 0, 0, 0, 0, 0, 0, 0, 0, 0, 0, 0, 0, 0, 0, 0, 0, 0, 0, 0, 0, 0, 0, 0, 0, 0, 0, 0, 0, 0, 0, 0, 0, 0, 0, 0, 0, 0, 0, 0, 0, 0, 0, 0, 0, 0, 0, 0, 0, 0, 0, 0, 0, 0, 0, 0, 0, 0, 0, 0, 0, 0, 0, 0, 0, 0, 0, 0, 0, 0, 0, 0, 0, 0, 0, 0, 0, 0, 0, 0, 0, 0, 0, 0, 0, 0, 0, 0, 0, 0, 0, 0, 0, 0, 0, 0, 0, 0, 0, 0, 0, 0, 0, 0, 0, 0, 0, 0, 0, 0, 0, 0, 0, 0, 0, 0, 0, 0, 0, 0, 0, 0, 0, 0, 0, 0, 0, 0, 0, 0, 0, 0, 0, 0, 0, 0, 0, 0, 0, 0, 0, 0, 0, 0, 0, 0, 0, 0, 0, 0, 0, 0, 0, 0, 0, 0, 0, 0, 0, 0, 0, 0, 0, 0, 0, 0, 0, 0, 0, 0, 0, 0, 0, 0, 0, 0, 0, 0, 0, 0, 0, 0, 0, 0, 0, 0, 0, 0, 0, 0, 0, 0, 0, 0, 0, 0, 0, 0, 0, 0, 0, 0, 0, 0, 0, 0, 0, 0, 0, 0, 0, 0, 0, 0, 0, 0, 0, 0, 0, 0, 0, 0, 0, 0, 0, 0, 0, 0, 0, 0, 0, 0, 0, 0, 0, 0, 0, 0, 0, 0, 0, 0, 0, 0, 0, 0, 0, 0, 0, 0, 0, 0, 0, 0, 0, 0, 0, 0, 0, 0, 0, 0, 0, 0, 0, 0, 0, 0, 0, 0, 0, 0, 0, 0, 0, 0, 0, 0, 0, 0, 0, 0, 0, 0, 0, 0, 0, 0, 0, 0, 0, 0, 0, 0, 0, 0, 0, 0, 0, 0, 0, 0, 0, 0, 0, 0, 0, 0, 0, 0, 0, 0, 0, 0, 0, 0, 0, 0, 0, 0, 0, 0, 0, 0, 0, 0, 0, 0, 0, 0, 0, 0, 0, 0, 0, 0, 0, 0, 0, 0, 0, 0, 0, 0, 0, 0, 0, 0, 9370, 9371, 0, 0, 0, 0, 0, 0, 0, 0, 0, 0, 0, 0, 0, 0, 0, 0, 0, 0, 0, 0, 0, 0, 0, 0, 0, 0, 0, 0, 0, 0, 0, 0, 0, 0, 0, 0, 0, 0, 0, 0, 0, 0, 0, 0, 0, 0, 0, 0, 0, 0, 0, 0, 0, 0, 0, 0, 0, 0, 0, 0, 0, 0, 0, 0, 0, 0, 0, 0, 0, 0, 0, 0, 0, 0, 0, 0, 0, 0, 0, 0, 0, 0, 0, 0, 0, 0, 0, 0, 0, 0, 0, 0, 0, 0, 0, 0, 0, 0, 0, 0, 0, 0, 0, 0, 0, 0, 0, 0, 0, 0, 0, 0, 0, 0, 0, 0, 0, 0, 0, 0, 0, 0, 0, 0, 0, 0, 0, 0, 0, 0, 0, 0, 0, 0, 0, 0, 0, 0, 0, 0, 0, 0, 0, 0, 0, 0, 0, 0, 0, 0, 0, 0, 0, 0, 0, 0, 0, 0, 0, 0, 0, 0, 0, 0, 0, 0, 0, 0, 0, 0, 0, 0, 0, 0, 0, 0, 0, 0, 0, 0, 0, 0, 0, 0, 0, 0, 0, 0, 0, 0, 0, 0, 0, 0, 0, 0, 0, 0, 0, 0, 0, 0, 0, 0, 0, 0, 0, 0, 0, 0, 0, 0, 0, 0, 0, 0, 0, 0, 0, 0, 0, 0, 0, 0, 0, 0, 0, 0, 0, 0, 0, 0, 0, 0, 0, 0, 0, 0, 0, 0, 0, 0, 0, 0, 0, 0, 0, 0, 0, 0, 0, 0, 0, 0, 0, 0, 0, 0, 0, 0, 0, 0, 0, 0, 0, 0, 0, 0, 0, 0, 0, 0, 0, 0, 0, 0, 0, 0, 0, 0, 0, 0, 0, 0, 0, 0, 0, 0, 0, 0, 0, 0, 0, 0, 0, 0, 0, 0, 0, 0, 0, 0, 0, 0, 0, 0, 0, 0, 0, 0, 0, 0, 0, 0, 0, 0, 0, 0, 0, 0, 0, 0, 0, 0, 0, 0, 0, 0, 0, 0, 0, 0, 0, 0, 0, 0, 0, 0, 0, 0, 0, 0, 0, 0, 0, 0, 0, 0, 0, 0, 0, 0, 0, 0, 0, 0, 0, 0, 0, 0, 0, 0, 0, 0, 0, 0, 0, 0, 0, 0, 0, 0, 0, 0, 0, 0, 0, 0, 0, 0, 0, 0, 0, 0, 0, 0, 0, 0, 0, 0, 0, 0, 0, 0, 0, 0, 0, 0, 0, 0, 0, 0, 0, 0, 0, 0, 0, 0, 0, 0, 0, 0, 0, 0, 0, 0, 0, 0, 0, 0, 0, 0, 0, 0, 0, 0, 0, 0, 0, 0, 0, 0, 0, 0, 0, 0, 0, 0, 0, 0, 0, 0, 0, 0, 0, 0, 0, 0, 0, 0, 0, 0, 0, 0, 0, 0, 0, 0, 0, 0, 0, 0, 0, 0, 0, 0, 0, 0, 0, 0, 0, 0, 0, 0, 0, 0, 0, 0, 0, 0, 0, 0, 0, 0, 0, 0, 0, 0, 0, 0, 0],
         "height":33,
         "id":20,
         "name":"Deko Ebene 4",
         "opacity":1,
         "type":"tilelayer",
         "visible":true,
         "width":30,
         "x":0,
         "y":0
        }, 
        {
         "data":[56, 57, 58, 59, 60, 13, 14, 15, 16, 17, 18, 19, 20, 21, 22, 23, 24, 25, 26, 27, 28, 29, 30, 31, 32, 34, 35, 36, 37, 38, 116, 117, 118, 119, 120, 73, 74, 75, 76, 77, 78, 79, 80, 81, 82, 83, 84, 85, 86, 87, 88, 89, 90, 91, 92, 94, 95, 96, 97, 98, 176, 177, 178, 179, 180, 133, 134, 135, 136, 137, 138, 139, 140, 141, 142, 143, 144, 145, 146, 147, 148, 149, 150, 151, 152, 154, 155, 156, 157, 158, 236, 237, 238, 239, 240, 193, 194, 195, 196, 197, 198, 199, 200, 201, 202, 203, 204, 205, 206, 207, 208, 209, 210, 211, 212, 214, 215, 216, 217, 218, 296, 297, 298, 299, 300, 253, 254, 255, 256, 257, 258, 259, 260, 261, 262, 263, 264, 265, 266, 267, 268, 269, 270, 271, 272, 274, 275, 276, 277, 278, 0, 0, 0, 0, 0, 313, 314, 315, 316, 317, 318, 319, 320, 321, 322, 323, 324, 325, 326, 327, 328, 329, 330, 331, 332, 0, 0, 0, 0, 0, 0, 0, 0, 0, 0, 373, 374, 375, 376, 377, 378, 379, 380, 381, 382, 383, 384, 385, 386, 387, 388, 389, 390, 391, 392, 0, 0, 0, 0, 0, 0, 0, 0, 0, 0, 0, 0, 0, 0, 0, 0, 0, 0, 0, 0, 0, 0, 0, 0, 0, 0, 0, 0, 0, 0, 0, 0, 0, 0, 0, 0, 0, 0, 0, 0, 0, 0, 0, 0, 0, 0, 0, 0, 0, 0, 0, 0, 0, 0, 0, 0, 0, 0, 0, 0, 0, 0, 0, 0, 0, 0, 0, 0, 0, 0, 0, 0, 0, 0, 0, 0, 0, 0, 0, 0, 0, 0, 0, 0, 0, 0, 0, 0, 0, 0, 0, 0, 0, 0, 0, 0, 0, 0, 0, 0, 0, 0, 0, 0, 0, 0, 0, 0, 0, 0, 0, 0, 0, 0, 0, 0, 0, 0, 0, 0, 0, 0, 0, 0, 0, 0, 0, 0, 0, 0, 0, 0, 0, 0, 0, 0, 0, 0, 0, 0, 0, 0, 0, 0, 0, 0, 0, 0, 0, 0, 0, 0, 0, 0, 0, 0, 0, 0, 0, 0, 0, 0, 0, 0, 0, 0, 0, 0, 0, 0, 0, 0, 0, 0, 0, 0, 0, 0, 0, 0, 0, 0, 0, 0, 0, 0, 0, 0, 0, 0, 0, 0, 0, 0, 0, 0, 0, 0, 0, 0, 0, 0, 0, 0, 0, 0, 0, 0, 0, 0, 0, 0, 0, 0, 0, 0, 0, 0, 0, 0, 0, 0, 0, 0, 0, 0, 0, 0, 0, 0, 0, 0, 0, 0, 0, 0, 0, 0, 0, 0, 0, 0, 0, 0, 0, 0, 0, 0, 0, 0, 0, 0, 0, 0, 0, 0, 0, 0, 0, 0, 0, 0, 0, 0, 0, 0, 0, 0, 0, 0, 0, 0, 0, 0, 0, 0, 0, 0, 0, 0, 0, 0, 0, 0, 0, 0, 0, 0, 0, 0, 0, 0, 0, 0, 0, 0, 0, 0, 0, 0, 0, 0, 0, 0, 0, 0, 0, 0, 0, 0, 0, 0, 0, 0, 0, 0, 0, 0, 0, 0, 0, 0, 0, 0, 0, 0, 0, 0, 0, 0, 0, 0, 0, 0, 0, 0, 0, 0, 0, 0, 0, 0, 0, 0, 0, 0, 0, 0, 0, 0, 0, 0, 0, 0, 0, 0, 0, 0, 0, 0, 0, 0, 0, 0, 0, 0, 0, 0, 0, 0, 0, 0, 0, 0, 0, 0, 0, 0, 0, 0, 0, 0, 0, 0, 0, 0, 0, 0, 0, 0, 0, 0, 0, 0, 0, 0, 0, 0, 0, 0, 0, 0, 0, 0, 0, 0, 0, 0, 0, 0, 0, 0, 0, 0, 0, 0, 0, 0, 0, 0, 0, 0, 0, 0, 0, 0, 0, 0, 0, 0, 0, 0, 0, 0, 0, 0, 0, 0, 0, 0, 0, 0, 0, 0, 0, 0, 0, 0, 0, 0, 0, 0, 0, 0, 0, 0, 0, 0, 0, 0, 0, 0, 0, 0, 0, 0, 0, 0, 0, 0, 0, 0, 0, 0, 0, 0, 0, 0, 0, 0, 0, 0, 0, 0, 0, 0, 0, 0, 0, 0, 0, 0, 0, 0, 0, 0, 0, 0, 0, 0, 0, 0, 0, 0, 0, 0, 0, 0, 0, 0, 0, 0, 0, 0, 0, 0, 0, 0, 0, 0, 0, 0, 0, 0, 0, 0, 0, 0, 0, 0, 0, 0, 0, 0, 0, 0, 0, 0, 0, 0, 0, 0, 0, 0, 0, 0, 0, 0, 0, 0, 0, 0, 0, 0, 0, 0, 0, 0, 0, 0, 0, 0, 0, 0, 0, 0, 0, 0, 0, 0, 0, 0, 0, 0, 0, 0, 0, 0, 0, 0, 0, 0, 0, 0, 0, 0, 0, 0, 0, 0, 0, 0, 0, 0, 0, 0, 0, 0, 0, 0, 0, 0, 0, 0, 0, 0, 0, 0, 0, 0, 0, 0, 0, 0, 0, 0, 0, 0, 0, 0, 0, 0, 0, 0, 0, 0, 0, 0, 0, 0, 0, 0, 0, 0, 0, 0, 0, 0, 0, 0, 0, 0, 0, 0, 0, 0, 0, 0, 0, 0, 0, 0, 0, 0, 0, 0, 0, 0, 0, 0, 0, 0, 0, 0, 0, 0, 0, 0, 0, 0, 0, 0, 0, 0, 0, 0, 0, 0, 0, 0, 0, 0, 0, 0, 0, 0, 0, 0, 0, 0, 0, 0, 0, 0, 0, 0, 0, 0, 0, 0, 0, 0, 0, 0, 0, 0, 0, 0, 0, 0, 0, 0, 0, 0, 0, 0, 0, 0, 0, 0, 0, 0, 0, 0, 0, 0, 0, 0, 0, 0, 0, 0, 0, 0, 0, 0, 0, 0, 0, 0, 0, 0, 0, 0, 0, 0, 0, 0, 0, 0, 0, 0, 0, 0, 0, 0, 0, 0, 0, 0, 0, 0, 0, 0, 0, 0, 0, 0, 0, 0, 0, 0, 0, 0, 0, 0, 0, 0, 0, 0, 0, 0, 0, 0, 0],
         "height":33,
         "id":5,
         "name":"Horizont",
         "opacity":1,
         "type":"tilelayer",
         "visible":true,
         "width":30,
         "x":0,
         "y":0
        }],
 "nextlayerid":35,
 "nextobjectid":9,
 "orientation":"orthogonal",
 "properties":[
        {
         "name":"mapCopyright",
         "type":"string",
         "value":"CC BY 4.0 Computertruhe e. V. - Excluded are the Computertruhe logo and all other works that are explicitly licensed.\n\nGatter.mp3\n-----\nCC0\n\nMeeresrauschen.mp3\n-----\nCC0"
        }, 
        {
         "name":"mapDescription",
         "type":"string",
         "value":"Escape the island or enjoy the beauty of the sunset."
        }, 
        {
         "name":"mapLink",
         "type":"string",
         "value":"world:\/\/computertruhe\/island.json"
        }, 
        {
         "name":"mapName",
         "type":"string",
         "value":"Island"
        }],
 "renderorder":"right-down",
 "tiledversion":"1.8.2",
 "tileheight":32,
 "tilesets":[
        {
         "columns":60,
         "firstgid":1,
         "image":"tilesets\/rc3-2021-mullana-background.png",
         "imageheight":1920,
         "imagewidth":1920,
         "margin":0,
         "name":"rc3-2021-mullana-background",
         "properties":[
                {
                 "name":"tilesetCopyright",
                 "type":"string",
                 "value":"CC0"
                }],
         "spacing":0,
         "tilecount":3600,
         "tileheight":32,
         "tilewidth":32
        }, 
        {
         "columns":60,
         "firstgid":3601,
         "image":"tilesets\/rc3-2021-mullana-ground.png",
         "imageheight":1920,
         "imagewidth":1920,
         "margin":0,
         "name":"rc3-2021-mullana-ground",
         "properties":[
                {
                 "name":"tilesetCopyright",
                 "type":"string",
                 "value":"CC0"
                }],
         "spacing":0,
         "tilecount":3600,
         "tileheight":32,
         "tilewidth":32
        }, 
        {
         "columns":30,
         "firstgid":7201,
         "image":"tilesets\/rc3-2021-mullana-utility.png",
         "imageheight":1280,
         "imagewidth":960,
         "margin":0,
         "name":"rc3-2021-mullana-utility",
         "properties":[
                {
                 "name":"tilesetCopyright",
                 "type":"string",
                 "value":"CC0"
                }],
         "spacing":0,
         "tilecount":1200,
         "tileheight":32,
         "tilewidth":32
        }, 
        {
         "columns":9,
         "firstgid":8401,
         "image":"tilesets\/mapUtilities.png",
         "imageheight":32,
         "imagewidth":288,
         "margin":0,
         "name":"mapUtilities",
         "properties":[
                {
                 "name":"tilesetCopyright",
                 "type":"string",
                 "value":"CC0"
                }],
         "spacing":0,
         "tilecount":9,
         "tileheight":32,
         "tiles":[
                {
                 "id":3,
                 "properties":[
                        {
                         "name":"collides",
                         "type":"bool",
                         "value":true
                        }]
                }],
         "tilewidth":32
        }, 
        {
         "columns":8,
         "firstgid":8410,
         "image":"tilesets\/BaseChip_pipo_1.png",
         "imageheight":3840,
         "imagewidth":256,
         "margin":0,
         "name":"BaseChip_pipo_1",
         "properties":[
                {
                 "name":"tilesetCopyright",
                 "type":"string",
                 "value":"Pipoya RPG Tileset 32x32\n-----\nFor commercial or personal use.\nUse and edit freely.\nNot redistribute or resell this assets.\nIt can be used for game development and other productions.\nhttps:\/\/pipoya.itch.io\/pipoya-rpg-tileset-32x32\n"
                }],
         "spacing":0,
         "tilecount":960,
         "tileheight":32,
         "tiles":[
                {
                 "id":559,
                 "properties":[
                        {
                         "name":"collides",
                         "type":"bool",
                         "value":true
                        }]
                }],
         "tilewidth":32
        }, 
        {
         "columns":8,
         "firstgid":9370,
         "image":"tilesets\/Dreikopfaffe.png",
         "imageheight":256,
         "imagewidth":256,
         "margin":0,
         "name":"Dreikopfaffe",
         "properties":[
                {
                 "name":"tilesetCopyright",
                 "type":"string",
                 "value":"Lucasfilm Games LLC"
                }],
         "spacing":0,
         "tilecount":64,
         "tileheight":32,
         "tiles":[
                {
                 "animation":[
                        {
                         "duration":100,
                         "tileid":2
                        }, 
                        {
                         "duration":100,
                         "tileid":4
                        }, 
                        {
                         "duration":100,
                         "tileid":6
                        }, 
                        {
                         "duration":100,
                         "tileid":16
                        }, 
                        {
                         "duration":100,
                         "tileid":18
                        }, 
                        {
                         "duration":100,
                         "tileid":20
                        }, 
                        {
                         "duration":100,
                         "tileid":22
                        }, 
                        {
                         "duration":100,
                         "tileid":32
                        }, 
                        {
                         "duration":100,
                         "tileid":34
                        }, 
                        {
                         "duration":100,
                         "tileid":36
                        }, 
                        {
                         "duration":100,
                         "tileid":38
                        }, 
                        {
                         "duration":100,
                         "tileid":48
                        }, 
                        {
                         "duration":100,
                         "tileid":50
                        }, 
                        {
                         "duration":100,
                         "tileid":52
                        }],
                 "id":0
                }, 
                {
                 "animation":[
                        {
                         "duration":100,
                         "tileid":3
                        }, 
                        {
                         "duration":100,
                         "tileid":5
                        }, 
                        {
                         "duration":100,
                         "tileid":7
                        }, 
                        {
                         "duration":100,
                         "tileid":17
                        }, 
                        {
                         "duration":100,
                         "tileid":19
                        }, 
                        {
                         "duration":100,
                         "tileid":21
                        }, 
                        {
                         "duration":100,
                         "tileid":23
                        }, 
                        {
                         "duration":100,
                         "tileid":33
                        }, 
                        {
                         "duration":100,
                         "tileid":35
                        }, 
                        {
                         "duration":100,
                         "tileid":37
                        }, 
                        {
                         "duration":100,
                         "tileid":39
                        }, 
                        {
                         "duration":100,
                         "tileid":49
                        }, 
                        {
                         "duration":100,
                         "tileid":51
                        }, 
                        {
                         "duration":100,
                         "tileid":53
                        }],
                 "id":1
                }, 
                {
                 "animation":[
                        {
                         "duration":100,
                         "tileid":10
                        }, 
                        {
                         "duration":100,
                         "tileid":12
                        }, 
                        {
                         "duration":100,
                         "tileid":14
                        }, 
                        {
                         "duration":100,
                         "tileid":24
                        }, 
                        {
                         "duration":100,
                         "tileid":26
                        }, 
                        {
                         "duration":100,
                         "tileid":28
                        }, 
                        {
                         "duration":100,
                         "tileid":30
                        }, 
                        {
                         "duration":100,
                         "tileid":40
                        }, 
                        {
                         "duration":100,
                         "tileid":42
                        }, 
                        {
                         "duration":100,
                         "tileid":44
                        }, 
                        {
                         "duration":100,
                         "tileid":46
                        }, 
                        {
                         "duration":100,
                         "tileid":56
                        }, 
                        {
                         "duration":100,
                         "tileid":58
                        }, 
                        {
                         "duration":100,
                         "tileid":60
                        }],
                 "id":8
                }, 
                {
                 "animation":[
                        {
                         "duration":100,
                         "tileid":11
                        }, 
                        {
                         "duration":100,
                         "tileid":13
                        }, 
                        {
                         "duration":100,
                         "tileid":15
                        }, 
                        {
                         "duration":100,
                         "tileid":25
                        }, 
                        {
                         "duration":100,
                         "tileid":27
                        }, 
                        {
                         "duration":100,
                         "tileid":29
                        }, 
                        {
                         "duration":100,
                         "tileid":31
                        }, 
                        {
                         "duration":100,
                         "tileid":41
                        }, 
                        {
                         "duration":100,
                         "tileid":43
                        }, 
                        {
                         "duration":100,
                         "tileid":45
                        }, 
                        {
                         "duration":100,
                         "tileid":47
                        }, 
                        {
                         "duration":100,
                         "tileid":57
                        }, 
                        {
                         "duration":100,
                         "tileid":59
                        }, 
                        {
                         "duration":100,
                         "tileid":61
                        }],
                 "id":9
                }],
         "tilewidth":32
        }],
 "tilewidth":32,
 "type":"map",
 "version":"1.8",
 "width":30
}